{
"chalkboard": {
  "boardmarkerWidth": 10,
        "chalkWidth": 10,
  "toggleChalkboardButton": { "left": "60px", "bottom": "30px"},
  "toggleNotesButton": { "left": "90px", "bottom": "30px"},
  "boardmarkers" : [
                { "color": "rgba(220,20,60,1)", "cursor": "plugins/chalmboard/img/boardmarker-red.png"},
                { "color": "rgba(30,144,255, 1)", "cursor": "plugins/chalmboard/img/boardmarker-blue.png"},
                { "color": "rgba(50,205,50,1)", "cursor": "plugins/chalmboard/img/boardmarker-green.png"},
                { "color": "rgba(255,140,0,1)", "cursor": "plugins/chalmboard/img/boardmarker-orange.png"},
                { "color": "rgba(150,0,20150,1)", "cursor": "plugins/chalmboard/img/boardmarker-purple.png"},
                { "color": "rgba(255,220,0,1)", "cursor": "plugins/chalmboard/img/boardmarker-yellow.png"}
        ]
  }
}
