<?xml version="1.0" encoding="UTF-8" standalone="no"?>
<!-- Created with Inkscape (http://www.inkscape.org/) -->

<svg
   width="141.18782mm"
   height="52.582428mm"
   viewBox="0 0 141.18782 52.582428"
   version="1.1"
   id="svg50914"
   inkscape:version="1.2 (dc2aedaf03, 2022-05-15)"
   sodipodi:docname="arrow_fft.svg"
   xmlns:inkscape="http://www.inkscape.org/namespaces/inkscape"
   xmlns:sodipodi="http://sodipodi.sourceforge.net/DTD/sodipodi-0.dtd"
   xmlns="http://www.w3.org/2000/svg"
   xmlns:svg="http://www.w3.org/2000/svg">
  <sodipodi:namedview
     id="namedview50916"
     pagecolor="#ffffff"
     bordercolor="#666666"
     borderopacity="1.0"
     inkscape:showpageshadow="2"
     inkscape:pageopacity="0.0"
     inkscape:pagecheckerboard="0"
     inkscape:deskcolor="#d1d1d1"
     inkscape:document-units="mm"
     showgrid="false"
     inkscape:zoom="0.93806818"
     inkscape:cx="105.00303"
     inkscape:cy="399.75772"
     inkscape:window-width="2560"
     inkscape:window-height="1377"
     inkscape:window-x="0"
     inkscape:window-y="0"
     inkscape:window-maximized="1"
     inkscape:current-layer="layer1" />
  <defs
     id="defs50911">
    <marker
       style="overflow:visible"
       id="Arrow2"
       refX="0"
       refY="0"
       orient="auto-start-reverse"
       inkscape:stockid="Arrow2"
       markerWidth="3.7"
       markerHeight="2.6909091"
       viewBox="0 0 7.7 5.6"
       inkscape:isstock="true"
       inkscape:collect="always"
       preserveAspectRatio="xMidYMid">
      <path
         transform="scale(0.7)"
         d="M -2,-4 9,0 -2,4 c 2,-2.33 2,-5.66 0,-8 z"
         style="fill:context-stroke;fill-rule:evenodd;stroke:none"
         id="arrow2L" />
    </marker>
    <inkscape:path-effect
       effect="bspline"
       id="path-effect52987"
       is_visible="true"
       lpeversion="1"
       weight="33.333333"
       steps="2"
       helper_size="0"
       apply_no_weight="true"
       apply_with_weight="true"
       only_selected="false" />
  </defs>
  <g
     inkscape:label="Layer 1"
     inkscape:groupmode="layer"
     id="layer1"
     transform="translate(-31.288261,-42.976366)">
    <rect
       style="color:#000000;overflow:visible;fill:none;fill-rule:evenodd;stroke:#919191;stroke-width:2;stroke-dasharray:none;stroke-opacity:1"
       id="rect50970"
       width="18.311296"
       height="34.747395"
       x="32.288261"
       y="59.811398"
       ry="4.4918871"
       rx="4.4918871" />
    <path
       style="fill:none;fill-rule:evenodd;stroke:#919191;stroke-width:2;stroke-linecap:butt;stroke-linejoin:miter;stroke-dasharray:none;stroke-opacity:1;marker-end:url(#Arrow2)"
       d="M 42.660255,59.14373 C 68.629354,52.20735 94.59827,45.271019 114.47979,44.145142 c 19.88151,-1.125878 33.67494,3.558359 41.90211,8.771511 8.22717,5.213153 10.88788,10.954691 13.54849,16.696025"
       id="path52985"
       inkscape:path-effect="#path-effect52987"
       inkscape:original-d="m 42.660255,59.14373 c 25.969182,-6.936068 51.938099,-13.872398 77.906755,-20.808995 13.79424,4.684686 27.58767,9.368922 41.3811,14.052984 2.66108,5.742032 5.32178,11.483573 7.98228,17.224959" />
  </g>
</svg>
