<?xml version="1.0" encoding="UTF-8" standalone="no"?>
<!-- Created with Inkscape (http://www.inkscape.org/) -->

<svg
   width="122.75401mm"
   height="62.377548mm"
   viewBox="0 0 122.75401 62.377548"
   version="1.1"
   id="svg46678"
   xml:space="preserve"
   sodipodi:docname="swi_delay_phase.svg"
   inkscape:version="1.2 (dc2aedaf03, 2022-05-15)"
   xmlns:inkscape="http://www.inkscape.org/namespaces/inkscape"
   xmlns:sodipodi="http://sodipodi.sourceforge.net/DTD/sodipodi-0.dtd"
   xmlns:xlink="http://www.w3.org/1999/xlink"
   xmlns="http://www.w3.org/2000/svg"
   xmlns:svg="http://www.w3.org/2000/svg"><sodipodi:namedview
     id="namedview46680"
     pagecolor="#ffffff"
     bordercolor="#666666"
     borderopacity="1.0"
     inkscape:showpageshadow="2"
     inkscape:pageopacity="0.0"
     inkscape:pagecheckerboard="0"
     inkscape:deskcolor="#d1d1d1"
     inkscape:document-units="mm"
     showgrid="false"
     inkscape:zoom="0.66331437"
     inkscape:cx="9.7992751"
     inkscape:cy="563.83521"
     inkscape:window-width="2560"
     inkscape:window-height="1377"
     inkscape:window-x="0"
     inkscape:window-y="0"
     inkscape:window-maximized="1"
     inkscape:current-layer="layer1" /><defs
     id="defs46675" /><g
     inkscape:label="Layer 1"
     inkscape:groupmode="layer"
     id="layer1"
     transform="translate(-45.256403,-84.933395)"><image
       width="115.39082"
       height="60.203911"
       preserveAspectRatio="none"
       xlink:href="data:image/png;base64,iVBORw0KGgoAAAANSUhEUgAABWQAAALQCAYAAAAXcXlcAAAABHNCSVQICAgIfAhkiAAAIABJREFU eJzs3Xd4VOXWxuFn0oGEXkMvAtIFaYJKJ1KkiKjIEekIB6WIgII0ESkqeERABUVRijRBRDrSFERA KdIMgYROkJKQnv39sT9smQkpM3tSfvd1zXVwvzPvehLEM6zZWa/NMAwBAAAAAAAAAFzPw90BAAAA AAAAACC7oCELAAAAAAAAABahIQsAAAAAAAAAFvGyoojNZrskKa+dpVhJoVZkAAAAAAAAAID/V1KS j53rNwzDKOrKwjYrDvWy2WzRknxdXggAAAAAAAAA0i7GMAw/VxZgZAEAAAAAAAAAWISGLAAAAAAA AABYhIYsAAAAAAAAAFiEhiwAAAAAAAAAWMTLojqxsnOol6+vr8qXL29RBAAAAAAAAACQfv/9d8XE xNhbinV1basasqGSqvz7Yvny5XX06FGLIgAAAAAAAACAVLVqVR07dszeUqirazOyAAAAAAAAAAAs QkMWAAAAAAAAACxCQxYAAAAAAAAALEJDFgAAAAAAAAAsQkMWAAAAAAAAACxCQxYAAAAAAAAALEJD FgAAAAAAAAAsQkMWAAAAAAAAACxCQxYAAAAAAAAALEJDFgAAAAAAAAAsQkMWAAAAAAAAACxCQxYA AAAAAAAALEJDFgAAAAAAAAAsQkMWAAAAAAAAACxCQxYAAAAAAAAALEJDFgAAAAAAAAAsQkMWAAAA AAAAACzi3obstWvmAwAAAAAAAACyAfc2ZK9ckUqUkHr0kPbulQzDrXEAAAAAAAAAwJXcP7IgJkb6 7DOpQQPpwQelBQukO3fcnQoAAAAAAAAAnM79Ddm/O3BA6t1bKl5cGjZMOnXK3YkAAAAAAAAAwGky VkP2rhs3pHfflSpWlFq3lr7+WoqPd3cqAAAAAAAAAEiXjNmQ/buNG6WOHaVy5aTJk6XLl92dCAAA AAAAAADSJOM3ZO8KDZXGjJFKlpS6dZN27eIQMAAAAAAAAACZipe7A6RaXJy0eLH5qF5dGjhQ6t5d 8vd3dzIAAACkgGEYSkhIUGJiogw+YAcAAMgybDabPDw85OnpKZvN5u44GVbma8j+3eHD0gsvSK+8 IvXoYf66ShV3pwIAAMD/S0xMVFRUlCIjIxUZGamYmBiasAAAANmAh4eHcuTIIX9/f+XKlUs+Pj40 af+fzYo3xDab7aikJJ3SKpKOOrtY06bmXbMdOkje3s7eHQAAAPdgGIZu376tP/74Q1FRUTRgAQAA IG9vbwUEBKhAgQLy8nL/PaJVq1bVsWPH7C0dMwyjqitru/+rd7Zt28xHsWJSv37mIzDQ3akAAACy haioKF2+fFlRUVHujgIAAIAMJC4uTtevX9fNmzdVqFAh5c2bN9veMZt5DvVKrYsXpQkTpFKlpCef NJu03J0BAADgEoZh6Nq1awoJCaEZCwAAAIcSEhJ06dIlnTt3TomJie6O4xZZtyF7V0KCtHy51KyZ VLWq9P770s2b7k4FAACQZRiGoStXrujq1avujgIAAIBM4s6dOwoNDc2WTdms35D9u99+kwYPlooX lwYMkH791d2JAAAAMr0rV67o+vXr7o4BAACATOZuUza7nTng3oZsxYrmWAGrZ7xGRkrz5kk1a0qN G0uLF0uxsdZmAAAAyAIiIyNpxgIAACDN7ty5oxs3brg7hqXc25D18pJef10KCflrrIDVdu+WunWT SpaUXntNOnfO+gwAAACZUGJioi5duuTuGAAAAMjkrl69qvj4eHfHsIzNiluCbTbbUUlV/n29SpUq Onr06D8v/vabNHeu9Omn0q1bLs+WhIeH1L69NHCg1KKF+c8AAABI4tq1a6maG+vr66tcuXIpR44c 8vT0lIeHhzx4rwUAAJBlJCYmKiEhQfHx8YqMjFRkZKQSEhJS9Nr8+fOrSJEiLk74l6pVq+rYsWP2 lo4ZhlHVlbUzXkP2rogI6csvpdmz3Tfr9b77pBdekJ5/XsqXzz0ZAAAAMqgzZ84oOjr6ns/Lnz+/ ChQoIC8vLwtSAQAAIKMwDEO3b9/W5cuX73kHrLe3t8qXLy+bzWZJNnc2ZDPuLQn+/lK/ftKhQ+ZY gWeflXx8rM1w6pQ0bJh5CFjv3tLPP1tbHwAAIIOKi4u7ZzPWZrOpZMmSKlKkCM1YAACAbMhmsyl3 7twqXbr0Pd8PxsXFKTabnPGUcRuyd9ls0kMPSYsWSaGh0ptvSqVKWZshKkpasEB68EGpfn3ps8+k FNwNAgAAkFVFRETc8zmFChWSv7+/BWkAAACQkfn4+KRoHEFkZKQFadwv4zdk/65wYWn0aCk4WFqz RgoKsj7Dvn1Sjx5SiRLSK6+YWQAAALKZezVkbTab8jHyCQAAAP8vICBAnp6eyT4nJR/6ZwWZqyF7 l6enefDW+vXmWIHhw62f8RoeLk2fLlWoILVtK61bJ6VwSDEAAEBmFxUVlex6rly5OLALAAAAf7LZ bMqVK1eyz7nXe8ysIvO/S65QQZoxQzp/3hwrUKeOtfUNQ/r2W6ldO/MQsGnTpGvXrM0AAABgIcMw 7nlaLqMKAAAA8G/3asgmJibKMAyL0rhP5m/I3pUjh9Szp7R/vzlW4PnnJV9fazOcOSONHGmOM3ju OenHH82GLQAAQBaSmJh4z+d4e3tbkAQAAACZSUoOer3XB/9ZQdZpyP5d3brSJ5+Yd81Ony6VK2dt /ZgY6fPPpYYNzTt258+X7tyxNgMAAICLpORN8r3mgwEAACD7Scl7xJR8+J/ZZc2G7F0FCkgvv2zO mV2/3pw7a7NZm+HgQalPH6l4cWnoUOnkSWvrAwAAOFlKfoyM+bEAAAD4t5S8R2RkQVbh4SEFBUlr 1kjBwdKoUVLBgtZmuHFDmjlTqlRJatVKWr1aio+3NgMAAAAAAAAAt8oeDdm/K1NGmjJFCgv7a6yA 1TZtkjp1MkcpTJ4sXb5sfQYAAAAAAAAAlst+Ddm7fH2l7t2lPXukAwekvn2lnDmtzRAaKo0ZI5Us KT3zjLRzJ4eAAQAAAAAAAFlY9m3I/t0DD0gffmgeAjZzplSxorX14+KkJUukRx6RataU5s6Vbt+2 NgMAAAAAAAAAl6Mh+3d580ovvSQdPy5t3ix17ixZfULw4cPSCy+Yh4D997/S0aPW1gcAAAAAAADg MjRk7bHZpObNpRUrpJAQaexYqUgRazPcvi3Nni1VqyY1bSp99ZV5Jy0AAAAAAACATIuG7L2UKCFN nCidOyctXWqOFbDa9u1S165S6dLSuHHmaAUAAAAAAAAAmQ4N2ZTy8TGbot9/b44VGDhQ8ve3NsPF i2ZzuHRpqUsXaetWDgEDAAAAAAAAMhEasmlRrZo5TuD8efN/q1a1tn5CgjlOoXlzqUoV6X//k27e tDYDAAAAAAAAgFSjIZseuXObd8oePmzeOfvUU5KXl7UZjh+XXnxRCgyU+veXfvnF2voAAAAAAAAA UoyGrDPYbOZs2SVLzFmzEydKxYtbm+HOHenDD6VataTGjaUvv5RiYqzNAAAAAAAAACBZNGSdrVgx aexYKSREWrnSHCtgtd27pWeflUqWlF59VTp71voMAAAAAAAAAJKgIesqXl5Sp07S5s3Sb79JL70k 5cljbYarV6UpU6Ry5aQOHaQNG6TERGszAAAAAAAAAPiTxQNPs6nKlaWZM6XJk81RArNnWzvrNTFR WrPGfJQvL73wgtSzp5Q/v3UZAAAAAABwg8TERMXGxro7RrJsNpt8fX3dHQOARbhD1kq5ckl9+0oH D0p79kjdu0s+PtZm+P136eWXzRm3vXpJ+/dbWx8AAABAuowfP142my3Zx5AhQ5xe98aNGw7rbd++ 3en1sqomTZrc8/fP3sPHx0cBAQEqWLCgypQpo7p166pt27bq27evpk+frrVr1+rMmTOWfR0hISEO s44fP96ltZP7MxASEpLk+Tt27FCOHDky9KNSpUou/Z4ByFi4Q9YdbDapYUPz8fbb0oIF0ty51s56 jY6WPvnEfNSrJw0cKHXtKuXIYV0GAAAAAC4xZ84cDRkyRGXKlHF3FDhJXFyc4uLiFBERofDwcJ11 8PfHYsWKqVGjRgoKClLHjh1VoEABi5MCAO6FO2TdrXBhadQo887VtWuloCDrM+zbJz3/vFSihDRi hJkFAAAAQKYVGxurMWPGuDsG3ODixYtavny5+vTpo6JFi6pt27basGGDu2MBAP6GhmxG4ekptWsn rV8vnT5tjhWwesbr9evSjBnSffdJbdpI33wjJSRYmwEAAACAU3z55Zc6dOiQu2PAjeLj4/Xtt98q KChI1atXpzELABkEDdmMqHx5afp0KSxM+vRTqW5da+sbhtkYbt/ezPLWW9LVq9ZmAAAAAJAuhmFo 1KhR7o6BDOLIkSMKCgpS586dde3aNXfHAYBsjYZsRpYjh9SjhzlSYN8+qWdPyc/P2gxnz0qjR5vj DP7zH+mHH8yGLQAAAIAMb8OGDdq6dau7YyAFSpUqpaioqGQfN2/e1JUrVxQcHKw9e/Zo+fLlmjhx op588kkVLVo0RXVWrVql2rVra+/evS7+ijKOJk2ayDCMdD8c6dGjR7r3tncYGYCsi4ZsZlG3rnn4 1/nz5liB8uWtrR8bKy1aJD30kFSnjvTxx1JkpLUZAAAAAKTayJEjk20mIWOw2Wzy8/NL9pE7d24V KlRIZcuWVcOGDfXEE09o7NixWrZsmS5evKjDhw9r9OjRCgwMTLZWaGiomjdvrh07dlj01QEA/o6G bGaTP780fLh08qT03XfmWAGbzdoMBw9KfftKxYtLQ4ZIJ05YWx8AAABAEjYHfy/Yv3+/vvrqK4vT wB2qVaumN998U2fOnNGcOXNUsGBBh8+NjIxUmzZtdPDgQQsTAgAkGrKZl4eH1Lq1tGaNFBxsjhUo VMjaDDdvSrNmSZUrSy1bSqtWSfHx1mYAAAAAIMlsxlWrVs3u2muvvaZ43qtnGz4+PhowYICOHTum xx9/3OHzIiMj1aVLF924ccPCdAAAGrJZQZky0ptvSqGh0hdfmGMFrLZ5s9S5s5ll0iTp0iXrMwAA AADZmIeHh6ZMmWJ37fTp0/rwww8tTgR3K1SokFatWqWXXnrJ4XOCg4M1dOhQC1MBAGjIZiW+vlK3 btLu3eZYgX79pJw5rc1w/rz0+utSyZLS009LO3ZwCBgAAABgkXbt2umRRx6xuzZx4kRFcg5EtuPh 4aGZM2fq+eefd/ichQsXav/+/daFAoBsjoZsVlWrljRvnnThgjlWoFIla+vHx0tLl0qPPirVqCHN mSPdvm1tBgAAACAbmjp1qt3rly9f1ttvv21xmrTbt2+fpkyZoo4dO6p69eoqUKCA/Pz85OPjo3z5 8qlSpUp67LHHNHbsWG3ZskUJCQnujpyhzZkzR/fff7/dNcMwNHbsWIsTAUD2RUM2q8uTR3rxRem3 36QtW8yxAp6e1mY4ckQaOFAKDJQGDZKOHrW2PgAAAJCNNGjQQJ06dbK7NmPGDF29etXiRCkXGRmp d955R2XLllX9+vX16quv6uuvv9aRI0d0/fp1xcTEKC4uTjdu3NDJkyf13Xff6Y033lCLFi1UrFgx jR49OkN/fe7k5+eX7NiKDRs26AQHNgOAJWjIZhc2m9SsmbRihRQSYo4VKFrU2gwREdIHH0jVqklN mkjLlkmxsdZmAAAAALKBKVOmyNPOjRi3b9/WpEmT3JDo3latWqWKFStq+PDhCgkJSfXrr169qrfe ekvly5fX+++/L4PRaUk0btxYrVu3trtmGIY+/vhjixMBQPZEQzY7KlFCmjBBOnfObIo++qj1Gb7/ XnrqKal0abM5HBZmfQYAAAAgi6pUqZJ69epld23evHkKDg62OJFjCQkJGjZsmDp37qwLFy6ke7/b t29r8ODB6ty5syIiIpyQMGsZPHiww7U1a9ZYmAQAsi8astmZt7f05JPS9u3mWIFBg6SAAGszXLok TZoklSkjPfGEOVaBT7IBAACAdBs/frxy2jnkNzY2VmPGjHFDoqQSExP1/PPP691333X63qtXr1ZQ UBBN2X8JCgpS4cKF7a6dPHlSp06dsjgRAGQ/NGRhqlpVev996fz5v8YKWCkhQVq5UmrRQrr/fvMg shs3rM0AAAAAZCGBgYF66aWX7K4tWbJEBw8etDhRUiNHjtSiRYscrnt6eqpVq1ZasGCB9u/fr4sX Lyo8PFy//vqrvvrqKz311FN2m8537d69W0899RTjC/7G09NTLVu2dLj+ww8/WJgGALInGrL4p4AA 6YUXpF9/lXbskJ5+WvLysjbDiRPSkCFS8eJSv37SoUPW1gcAAACyiJEjR6pAgQJJrhuGoZEjR7oh 0V/Wrl2rGTNmOFyvU6eODhw4oA0bNqhnz56qU6eOihYtqvz586t69erq0qWLlixZolOnTqldu3YO 9/n22281depUV3wJmVbTpk0dru3fv9/CJACQPdGQhX02m/Tww9LixVJoqDlWoEQJazPcuSN99JH0 wANSo0bSF19IMTHWZgAAAAAysTx58ujVV1+1u7Zp0yZt2bLF4kSmiIgIDRo0yOF6165dtXfvXtWo UeOeewUGBmrt2rV6/fXXHT5nwoQJOn36dJqyZkU1a9Z0uHb06FELkwBA9mTxrY/IlIoWlcaMkUaN ktauNUcabN5sbYY9e8zH0KFS797SgAHmgWAAACDLmrD2qI5duOXuGMjEqgTm1rj2Vd0dw+0GDRqk 9957T2fPnk2yNnLkSP3000+y2WyWZnr//fcVGhpqd61169ZatGiRPD09U7XnhAkTFB4ertmzZydZ i46O1vjx45Mdj5CdVKlSxeGao98XAIDz0JBFynl5SZ06mY8TJ6S5c6VPPpFu3rQuw9Wr0ltvSVOn Su3aSQMHSq1aSR7c7A0AQFZz7MIt7T1z3d0xgEzP19dXEydOVI8ePZKs/fzzz1q6dKmefvppy/LE xcU5PMQrd+7c+vTTT+Xt7Z2mvd955x1t3LjR7sFUS5Ys0eTJk1WaGzuUM2dO5c2bVzfsnNsRFhbm hkQAkL3QxULaVKokvfuueQjYRx9JtWpZW98wzLt1H3tMqlhRmjFDCg+3NgMAAACQSXTv3t3hj/+P GTNGcXFxlmVZt26drly5Yndt3LhxKlq0aJr39vHx0axZs+yuJSQkaOHChWneO6spVqyY3etRUVGK ioqyOA0AZC80ZJE+uXJJffpIBw5IP/wg/ec/ko+PtRl+/10aMcKccduzp/TTT9bWBwAAADI4Dw8P TZkyxe7a77//rnnz5lmWZcWKFXav58qVS/369Uv3/o899pjDH8l3VDs7ypkzp8M1GrIA4Fo0ZOEc NpvUoIH02WdSWJg5VqBMGWszREdLn34q1asn1a1r/po3EgAAAIAkqU2bNnr00Uftrk2aNEkRERGW 5Njs4DyKTp06yd/f3yk1/vOf/9i9fvjwYV2+fNkpNTK7HDlyOFyjIQsArkVDFs5XqJA0cqR0+rT0 zTdSmzZmw9ZK+/ebd8sWLy69/LJ5Fy0AAACQzU2dOtXu9StXrmjGjBkur3/27FldunTJ7lqHDh2c VqdTp052rxuGoZ/4iTpJUmJiosM1qw95A4DshoYsXMfTU2rbVlq3Tjp1yhwrkD+/tRn++EN6+22p QgVz3uzatVJCgrUZAAAAgAyifv366ty5s921t99+2+FsV2c5cuSIw7XatWs7rU7FihUVEBBgd+3X X391Wp3MLDo62uFacnfPAgDSj4YsrFG+vDRtmjnO4O5YAat99530+ONmlilTJBe/2QQAAAAyojff fFNeXl5JrkdERGjSpEkurX3mzBm71/PkyaNy5co5rY7NZlPNmjXtroWEhDitTmYWGRnpcI2GLAC4 Fg1ZWCtHDqlHD2nvXvPwrV69JD8/azOcPSu9+qpUsqTUvbu0Z49kGNZmAAAAANykUqVK6tWrl921 efPm6XcXjvu6cOGC3eslS5Z0eq1SpUqlKkN242h0RM6cOeVn9d/RACCboSEL93nwQWn+fOn8+b/G ClgpNlb64gupUSOpdm3po4+kZD4lBgAAALKK8ePHK2fOnEmux8XFacyYMS6re/PmTbvXc+fO7fRa efLkSVWG7CQyMtLh98EVzXEAwD/RkIX75c8vDRsmnTghbdggdeggeVj8r+ahQ1K/flJgoPTSS9Lx 49bWBwAAACxUrFgxDRkyxO7a0qVLdeDAAZfUjYmJsXvdyoZscrNTs4vkZvlmhoaswU84AsjkaMgi 4/DwkFq1klavloKDzbEChQpZm+HWLem996T775datJBWrpTi463NAAAAAFhg5MiRKlCgQJLrhmFo 5MiRLqnpqJFms9ksqwXpl19+cbhWo0aNFO3h6enpcC02NjbVmVLDUWNfkry9vV1aGwCcIekkdyAj KF1amjxZev11syk6e7a0e7e1GbZsMR/Fi0v9+0t9+kjFilmbAQCAbKxKoPPvmEP2wr9DycudO7de e+01DRs2LMna5s2btWnTJrVs2dKpNR3NJnXFGIFbt26lKkN2sm3bNodrderUSdEeyX0f79y5k+pM qREVFeVwjd9fAJkBDVlkbL6+0jPPmI9ffpHmzJEWLbJ21uv582ZjeOJEqXNnaeBA6ZFHJBd8ig8A AP4yrn1Vd0cAsrxBgwbpvffeU0hISJK1UaNGqUWLFk69ezVv3rx2rztqnqaHoyavo1EG2UV8fLw2 b97scL1hw4Yp2icgIMDhWnh4eKpzpUZy+/v7+7u0NgA4AyMLkHnUrCnNnWs2SN97T6pc2dr68fHS smVSkyZS9erSBx+YIw4AAACATMrHx0cTJ060u3bgwAEtWbLEqfWKOfiJs7CwMKfWkaTQ0FC71wMD A51eKzNZt26drl27ZnetSpUqKlu2bIr28fPzU758+eyunT9/Ps35UsLR722BAgXk6+vr0toA4Aw0 ZJH55MkjDR4sHTsmbd0qdekiJTO/yCWOHpUGDTLHGQwcKCUzFB8AAADIyJ599lnVrFnT7tqYMWMU FxfntFqOmn03btzQmTNnnFbHMAwdOnQoVRmyi/fff9/hWocOHVK1V+nSpe1eP3XqVKr2Sa3Tp0/b vV6qVCmX1gUAZ6Ehi8zLZpOaNpW++ko6e1YaN876Ga8REeYYherVzTEGS5dKLh5gDwAAADiTh4eH pkyZYnctODhYc+fOdVqt6tWrO1w7cOCA0+qcOnVKt2/fTnWGrO777793OK7Aw8NDffr0SdV+1apV s3s9LCxMV65cSXW+lLh06ZIuXLhgdy2lB5IBgLvRkEXWULy4NH682Zj96iuzUWu1nTulp582DyR7 /XXJBT92BQAAALjCY489pqYO3kNPmjTJYXMztUqVKuVwbMGaNWucUkOSVq9ebfe6zWZTvXr1nFYn M4mKilL//v0drrdr107lypVL1Z4PPvigw7Xt27enaq+USu5AsuTyAEBGQkMWWYu3tznCYOtWc6zA f/8rJTNs3iUuXZImTZLKlDEPAdu8WTIMazMAAAAAqTR16lS7169evaoZM2Y4rU6LFi3sXl+5cqUi nXR47+eff273eo0aNVS4cGGn1MhMDMNQ//79deLECbvrHh4emjBhQqr3bdmypcO1VatWpXq/lFi5 cqXDteTyAEBGQkMWWVeVKtL//mceAnZ3rICVEhKkVaukli3NA8hmzZJu3LA2AwAAAJBCdevWVZcu XeyuvfPOO7p8+bJT6jzxxBN2r0dEROjjjz9O9/6bNm3SEQdnPDj6+rKyxMREvfjiiw6b1JLUt29f 1apVK9V7V6lSRRUrVrS7tnLlSl26dCnVeybnwoUL+vrrr+2uVapUSZUqVXJqPQBwFRqyyPoCAqQB A6RffjHHCjzzjHknrZVOnpSGDJECA6W+faWDB62tDwAAAKTAm2++KS8vryTXIyIiNHHiRKfUaNOm jcO7VMeNG5eu2aNxcXEaPHiw3TVPT08999xzad47M7p69ao6dOiQ7EFeFStW1PTp09Nco2fPnnav x8bGaty4cWne156xY8c6PGSud+/eTq0FAK5EQxbZh80mNW4sffmldO6c9MYbUsmS1maIipI+/liq XVtq2FBatEiKjrY2AwAAAODAfffd5/Bgp8WLFzulhre3t4YNG2Z37ebNm+rVq5fi4+PTtPeIESMc /lj+M888o1KlSqVp38wmJiZGc+bMUZUqVfTNN984fF5AQIBWrFihgHSMeevfv7/y5Mljd+2jjz5K dsRAaixbtkwLFiywu5YvXz717dvXKXUAwAo0ZJE9FS0qvfaaFBwsrV4ttWplfYYff5T+8x+zKTxq lBQSYn0GAAAA4F/GjRunXLlyJbluOPFchP/+978q6eDmiHXr1qlnz55KTExM1Z4TJ07UrFmz7K75 +flp/PjxqY2Z6Rw5ckSvvvqqypUrp4EDB+ratWsOnxsQEKANGzaoWrVq6aqZL18+jRw50u6aYRh6 6qmntHDhwnTVWLBggbp16+ZwffTo0cqbN2+6agCAlWjIInvz8pI6dJA2bJBOnJCGDpWs/j/ya9ek qVOlcuWk9u2l9eulVL75BAAAAJylaNGiGjp0qEtr5MqVS7Nnz3a4vmjRIj300EM6evToPfe6ePGi OnbsmOyPx48fP17ly5dPU1arGIah6OjoZB8RERG6du2aQkJC9OOPP2rlypWaPHmynn76aQUGBqp6 9eqaMmWKLly4kGytMmXKaPv27WrYsKFTso8YMUK1a9e2uxYfH6/nn39eXbp0SdHv598dPXpUXbp0 Ue/evZWQkGD3OXXr1nV4xzUAZFRJhwMB2VXFitI775ijDBYvlmbPtnbWq2FI33xjPsqVk154QerZ UypQwLoMAAAAgKRXXnlFc+fOTfYOy/Rq3769Xn75Zc2YMcPu+t69e1WrVi21bNlSTz31lGrUqKHA wEB5e3vrwoULOnnypJYvX66vv/5ad+7ccVinTZs2euWVV1z1ZTjNuXPcguydAAAgAElEQVTnlCNH DpfXefLJJzVv3jzly5fPaXt6eXlpxYoVatCggcPD31asWKFVq1apYcOGatasmRo3bqzAwEDlz59f uXPn1u3btxUeHq6LFy9q586d2rZtm/bs2ZPsndLFihXT8uXL5enp6bSvBQCsQEMW+LecOaXevaVe vaR9+6QPPpCWLpViYqzLEBwsjRghjRkjPf20NHCgVK+edfUBAACQrQUEBGjMmDEaMmSIS+tMnTpV Fy5c0Jdffml3PT4+XuvXr9f69evTtP9DDz2kpUuXymazpSdmllCrVi29/fbbatasmUv2L1OmjDZs 2KCgoCBdunTJ7nMSExO1e/du7d69O931AgMDtWHDhmwzFxhA1sLIAsARm02qX19auFAKCzPHCpQp Y22GmBizfv36Ut260iefSMl8+g8AAAA4ywsvvKCyZcu6tIaHh4c+++wzvfjii07f+/HHH9d3330n f39/p++dWXh7e6tdu3batGmTDh486LJm7F01a9bUnj17VM/FN5M0aNBAe/bsSff8WwBwFxqyQEoU LCi98op0+rS0bp3Upo3ZsLXS/v3mXbslSkjDh0unTllbHwAAANmKj4+PJk2a5PI6np6emjVrllas WKFixYqle7+AgADNmjVLq1evVkBAgBMSZi6BgYHq2rWrFixYoMuXL2vt2rVq0aKFZfXLli2r3bt3 a8aMGU4diyBJ+fPn19tvv61du3apdOnSTt0bAKzEyAIgNTw9zWZsmzbmWIF586T586XwcOsy/PGH Oev2nXek1q3NcQZt25rZAAAAACfq1q2bZsyYoUOHDrm8VufOndWqVSvNnTtXs2fPVkhISKpeX7Bg QfXp00dDhw5V4cKFXRPSjby8vOTr6ysfHx8FBASoUKFCKly4sIoXL66KFSuqUqVKqlGjhspY/VN9 DrIOHz5cffr00cKFC7VgwQL98ssvad6vZs2a6tWrl3r06KE8efI4MWnqODo4rlatWhYnAZDZ2QzD cH0Rm+2opCr/vl6lSpVUn7IIZDjR0dJXX5mHgO3d654MpUpJAwaYs2+z4JtPAEDGEhMTo+Dg4GSf U65cOfn6+lqUCEBWYxiGfvzxR23ZskX79u3T77//rgsXLigyMlKGYShnzpwqXLiwypUrpzp16qhp 06Zq2rSpvLy45yijCg0N1ZYtW3TgwAEdO3ZMYWFhunLliu7cuaPY2Fj5+Pj8+ftaokQJ3X///apd u7aaN2/OnFggC8lI7yOrVq2qY8eO2Vs6ZhhGVVfWpiELONPPP0tz5khffilFRVlf39tbevJJ867Z hx6yfqwCACBbyEhvpAEAAJB5ZKT3ke5syDJDFnCmOnWkjz+Wzp83RwpUqGBt/bg4sxncuLH0wAPS hx9KERHWZgAAAAAAAIBDNGQBV8iXTxo6VDpxQtq4UerQQfKw+I/bL79I/ftLxYtLL74o/fabtfUB AAAAAACQBA1ZwJU8PKSWLaXVq6UzZ6TXXrN+xuutW9L//idVqSI1by6tWGHeSQsAAAAAAADL0ZAF rFKqlPTGG1JoqLR4sTlWwGpbt0pdukhlykgTJkgXL1qfAQAAAAAAIBujIQtYzcdHevppaedOc6zA gAFSrlzWZrhwQRo/3mwSd+0qbd8uWXDAHwAAAAAAQHZHQxZwpxo1pDlzzAbp++9L999vbf34eOmr r6SmTaVq1aTZs80RBwAAAAAAAHAJGrJARpA7tzRokHT0qLRtmzlWwNPT2gzHjkn//a8UGCi98IJ0 +LC19QEAAAAAALIBGrJARmKzSU2amHetnjtnjhUIDLQ2Q2SkNHeueffuI49IS5ZIsbHWZgAAAAAA AMiiaMgCGVVgoDRunBQSIi1fbo4VsNrOndIzz0glS0pjxphNYgAAAAAAAKQZDVkgo/P2lp54Qtq6 1RwrMHiwOeLASleuSJMnS2XLSp06SZs2SYmJ1mYAAAAAAADIAmjIApnJ/fdL770nnT//11gBKyUm SqtXS61amVlmzpT++MPaDAAAAAAAAJkYDVkgM/L3l/r3lw4dknbtkrp1M++ktdLJk9LQoVLx4lKf PtKBA9bWBwAAAAAAyIRoyAKZmc0mNWokffGFFBpqjhUoWdLaDFFR0vz5Up06UsOG0uefS9HR1mYA AAAAAADIJGjIAllFkSLSq69KwcHS11+bYwWs9uOP0nPPSSVKSCNHSmfOWJ8BAAAAAAAgA6MhC2Q1 Xl7S449LGzaYYwWGDZPy5rU2Q3i4NG2aVL681K6d9O23UkKCtRkAAAAAAAAyIBqyQFZ2333S22+b h4DNny/Vrm1tfcOQ1q2T2rY1s0ybJl27Zm0GAAAAAACADISGLJAd5Mwp9eol7d8v7d0r9egh+fpa m+HMGXOMQYkSZv29e82GLQAAAAAAQDZCQxbITmw2qV496dNPzbtmp02Typa1NkNMjPTZZ1KDBlLd utKCBdKdO9ZmAAAAAAAAcBMaskB2VaCANGKEdPq0OeO1bVuzYWuln3+WeveWihc3Z92eOmVtfQAA AAAAAIvRkAWyOw8P6bHHpG++kX7/3RwrUKCAtRlu3JDefVeqWFFq3Vr6+mspPt7aDAAAAAAAABag IQvgL2XLSm+9JYWF/TVWwGobN0odO0rlykmTJ0uXL1ufAQAAAAAAwEVoyAJIys9P+s9/pB9+MMcK 9Okj5chhbYbQUGnMGKlkSalbN2nXLg4BAwAAAAAAmR4NWQDJq11b+ugj8xCwd9+V7rvP2vpxcdLi xdLDD0u1aknz5kkREdZmAAAAAAAAcBIasgBSJl8+acgQ6fhxadMmqVMnc/6slX79VRowQAoMlAYP ln77zdr6AAAAAAAA6URDFkDqeHhILVpIK1dKISHmWIEiRazNcPu29P77UpUqUrNm0vLl5p20AAAA AAAAGRwNWQBpV7KkNGmSdO6ctGSJOVbAatu2SU8+KZUuLY0fL124YH0GAAAAAACAFKIhCyD9fHyk p56Sduwwxwq88ILk729thosXpQkTpFKlzAbttm0cAgYAAAAAADIcGrIAnKt6demDD8xDwO6OFbBS QoI5wqBZM6lqVTPDzZvWZgAAAAAAAHCAhiwA18idWxo0SDpyRNq+XeraVfLysjbDb7+Zh38VL24e Bvbrr9bWBwAAAAAA+BcasgBcy2aTHn1UWrpUOnvWHCsQGGhthshIad48qWZNc87t4sVSbKy1GQAA AAAAAERDFoCVAgOl11+XQkKkFSuk5s2tz7Brl9Stm3kg2WuvmQeSAQAAAAAAWISGLADreXtLnTtL mzebYwVefNEccWClK1ekN9+UypaVOnaUNm6UEhOtzQAAAAAAALIdGrIA3KtyZWnWLPMQsHnzpBo1 rK2fmCh9/bXUurWZ5d13pT/+sDYDAAAAAADINmjIAsgY/P2lfv2kQ4ek3bulZ5+VfHyszXDqlDRs mHkIWO/e0s8/W1sfAAAAAABkeTRkAWQsNpv00EPSokVSaKg5VqBUKWszREVJCxZIDz4o1a8vffaZ FB1tbQYAAAAAAJAl0ZAFkHEVLiyNHi0FB0tr1khBQdZn2LdP6tFDKlFCeuUVMwsAAAAAAEAa0ZAF kPF5ekrt20vr15tjBYYPl/LlszZDeLg0fbpUoYLUtq20bp2UkGBtBgAAAAAAkOnRkAWQuVSoIM2Y YR4CtmCBVKeOtfUNQ/r2W6ldO+m++6Rp06Rr16zNAAAAAAAAMi0asgAypxw5pJ49pf37zbECzz8v +fpam+HMGWnkSHOcwXPPST/+aDZsAQAAAAAAHKAhCyDzq1tX+uQT867Z6dOlcuWsrR8TI33+udSw oXnH7vz50p071mYAAAAAAACZAg1ZAFlHgQLSyy+bc2bXrzfnztps1mY4eFDq00cqXlwaOlQ6edLa +gAAAAAAIEOjIQsg6/HwkIKCpDVrpOBgadQoqWBBazPcuCHNnClVqiS1aiWtXi3Fx1ubAQAAAAAA ZDg0ZAFkbWXKSFOmSGFh0qJF5lgBq23aJHXqZI5SmDxZunzZ+gwAAAAAACBDoCELIHvw9ZWefVba s0c6cEDq21fKmdPaDKGh0pgxUsmS0jPPSDt3cggYAAAAAADZDA1ZANnPAw9IH35oHgI2c6ZUsaK1 9ePipCVLpEcekWrWlObOlW7ftjYDAAAAAABwCxqyALKvvHmll16Sjh+XNm+WOneWPD2tzXD4sPTC C+YhYP/9r3T0qLX1AQAAAACApWjIAoDNJjVvLq1YIYWESGPHSkWKWJvh9m1p9mypWjWpaVPpq6/M O2kBAABgV4kSJWSz2ZI8wsLC3B3NrjFjxtjN+8Ybb7g7GjKxzPbnID0aN25s92vdtWuXu6MBqUZD FgD+rkQJaeJE6dw5aelSc6yA1bZvl7p2lUqXlsaPN0crAAAAAACALIGGLADY4+NjNkW//94cKzBw oOTvb22GixelCRPMxmyXLtLWrRwCBgBANvT000/bvSssV65cio2NdWqt8uXL261ls9nUsGFDp9a6 fv26PDw87Nbq16+fU2sBAJCReLk7AABkeNWqmeME3npLWrTI/LWVs14TEsxxCitWSJUrm83h556T 8uSxLgMAAHCbpk2baunSpUmu37lzR/v27VPjxo2dUicsLEzBwcEO1/fv36+IiAj5O+lD6u+//16G gw+bmzZt6pQaKbF161bt2LEjyfVmzZrpEXf8tBQAIMujIQsAKRUQYB7ANWCAtHOn9MEHZpM0Pt66 DMePSy++KI0aJXXvbjZna9a0rj4AALBccs3J7du3O60hu23btmTX4+PjtWvXLgUFBTml3vbt2x2u NWnSxCk1UmLr1q2aPHlykuteXl40ZAEALsHIAgBILZvNnC27ZIk5a3biRKl4cWsz3LkjffihVKuW 1Lix9OWXUkyMtRkAAIAlKlasqOIO3mvcq4maGsk1SK2sV7lyZRUrVsxpdQAAyGhoyAJAehQrJo0d K4WESCtXSs2bW59h927p2WelkiWlV181m8QAACBLcXTH6A8//KAYJ30om5Jma0qatikRHh6uw4cP 212zclwBAADuQEMWAJzBy0vq1EnavFn67TfppZesn/F69ao0ZYpUtqzUoYO0YYOUmGhtBgAA4BKO mpRRUVHau3dvuvcPDQ3VmTNn7vm8n3/+Wbdv3053vYwyPxYAAHegIQsAzla5sjRzpnT+vPTRR+ZY ASslJkpr1khBQVKlStI770jXr1ubAQAAONW95siml727Y3PlyqW8efP+41pCQoJ27tyZ7nqOMtts thTPjw0LC5NhGEkeJUqUSHc+AABciYYsALhKrlxSnz7SgQPSnj3mIVw+PtZmOH1aGj7cnHHbq5e0 f7+19QEAgFOUK1dOpUqVsrvmjLmu9hqkjRo10sMPP2xZPUmqWrWqChUqlO79AQDIyGjIAoCr2WxS w4bS559LYWHmWIHSpa3NEB0tffKJVLeuVL++tHChFBVlbQYAAJAuju6S/fHHH9M9R9Zek7VJkyZ6 9NFHk1xP7x254eHhOnLkiN01xhUAALIDGrIAYKVChaRRo6Tff5fWrjXHClht3z7p+eelEiWkESPM LAAAIMNz1KyMjo7WDz/8kOZ9z507p5CQkCTXHTVkDx48qJs3b6a53vbt25kfCwDI1mjIAoA7eHpK 7dpJ69ebYwVeflnKn9/aDNevSzNmSPfdJ7VpI33zjZSQYG0GAACQYq6aI+tofuyDDz6oBx54QLlz 5/7HWnrnyCY3P9ZeAxjITuLj490dAYAFvNwdAACyvfLlpenTpYkTpWXLpNmzpZ9+sq6+YZiN4fXr pTJlpAEDzHmzzG8DACBDKVWqlMqWLaszZ84kWdu2bZvGjx+fpn3tNUgfeugheXt7SzJnya5fvz5J vXbt2jmtniTVrFlT+a3+gDoDMwxDu3bt0tq1a/Xzzz/rxIkT+uOPPxQfH6+CBQuqUKFCqlChglq3 bq2goCCVLFnS3ZFTLSoqSj/88IMOHDig48eP6/jx47pw4YJu3bql27dvyzAM5ciRQ4UKFVLJkiVV vXp1NWjQQK1atVLBggXdHT/djh49qpUrV+r777/XsWPHdPXqVcXHx8vHx0cFChRQ5cqVVa9ePbVv 316NGjVyd1yFhIRo06ZN2rNnj06cOKGQkBDdunVL0dHR8vX1Vd68eVWmTBnVrFlTjz76qNq0aaOA gAB3x06x8+fPa+fOnTp69KiOHz+ukydP6vr167p165YiIyPl7e0tf39/FStWTOXKldMDDzygJk2a qFGjRvLyor2GVLJ3KqWzH5KOSjL+/ahSpYoBALBj3z7D6NnTMPz8DMNsmVr78PExjO7dDWPPHsNI THT3dwNABhMdHW0cO3Ys2Ud0dLS7YwJZUq9evZL8vUqS4evra0RFRaVpz9KlSyfZb/LkyX+uv/XW W0nWa9eunaZaV69eNWw2m92vYdiwYWnaM7WKFy9ut356H+XLl0+27muvvWb3dZMmTUry3M8++8yo VKlSimvbbDaje/fuxtmzZ131bXOaEydOGJMmTTIaN25s+Pj4pOl77eHhYbRv397Yvn27u7+cNNm7 d6/RrFmzVH3N1apVM7766qskezn69zk0NNQpWePj440vvvjCqF+/fqp/n3LkyGH07NnTOHXqlFOy NGrUyG6dnTt3pmm/uLg4Y8OGDUa/fv2MChUqpPnPfoECBYwRI0YYly5dSvPX1r9/f7t7N2nSJM17 JicxMdEoW7as3ZpvvfWWS2relZHeR1apUsXR7+tRw8W9UkYWAEBGVLeutGCBdP68OVagfHlr68fG SosWSQ89JNWpI338sRQZaW0GAACQhKOxBTExMdqzZ0+q9zt79qzOnj2b5PrfRwc88sgjSdYPHTqk GzdupLqeM+fHlihRQjabLckjLCws1bkyigsXLqhp06Z67rnndOLEiRS/zjAMLVq0SJUqVdKyZctc mDDttmzZogceeECVKlXS2LFjtWvXLsXGxqZpr8TERK1du1ZNmjRRp06ddPXqVSendY34+Hi98sor atCggbZu3Zqq1x45ckRPPvmkOnXqpNu3b7so4T9t27ZN1apV07PPPqu9e/em+vVRUVH65JNPVLVq VY0fPz5DjWMYPXq0ihYtqtatW+vDDz/U6dOn07xXeHi4pk+frgoVKmjWrFkO/xuXnEGDBtm9vn37 9lT9tyClNm7caPenLXx8fNSzZ0+n10NSNGQBICPLn18aPlw6eVL67jupfXvJZrM2w8GDUt++UvHi 0pAhkgveEAAAgJRx9hxZe/Njc+bMqXr16v35zw8++KBy5cr1j+ckJiZqx44dqa7nKKOnp6cefvjh VO+XlRw+fFj16tVL1zzg6OhoPfPMM5o/f77zgjnJTz/9pEOHDjl939WrV6tWrVo6cuSI0/d2pjt3 7ujxxx/X9OnT09Swu2v16tV65JFHdP36dSem+6eEhASNHj1azZs31/Hjx9O9X2xsrCZMmKCgoKA0 fZDjCqtWrVJ4eLhT94yIiNCQIUPUtWvXVH/YUL16dYdjKT788ENnxPuHefPm2b3eqVMnFS5c2On1 kBQNWQDIDDw8pNatpTVrpOBgafRo62e83rwpzZolVa4stWwprVolZaBPuQEAyA6KFy+u++67z+6a vebqvdh7TcOGDf+cHytJ3t7eatiwocvqSVLt2rWVJ0+eVO+XVZw+fVotW7bU+fPn071XYmKiBgwY oAMHDjghWeZw987i33//3d1R7IqPj9cTTzyRZBZzWh06dEgdO3ZM8x3GyYmLi1PXrl311ltvpatx bM+WLVvUunVr3bp1y6n7ZjTLly/XM888k+rv38CBA+1eX7hwoWJiYpwRTZJ08eJFrV271u5a//79 nVYHyaMhCwCZTZky0ptvSqGh0hdfmGMFrLZ5s9S5s5ll0iTp0iXrMwAAkE05ukt23759ioqKStVe 33//fZJrTZo0SXLt7yMM7krtnZxXr17Vb7/9ZnctteMKspI7d+6oQ4cOunz58j+uV6hQQcOHD9eG DRt0/PhxXb9+XVeuXNGRI0f04YcfqkWLFg73jI+PV69evRQXF+fq+OmSK1cuBQUFaeTIkfryyy+1 f/9+nT59WlevXtWtW7cUFhamX3/9VYsWLdKLL76ookWLOtzr2rVreuKJJzLk1zxixAh99913Dtfz 5s2r3r17a/369Tp16pQiIyMVHh6uw4cP69NPP1Xr1q3l6en5j9fs3LlTEyZMcGpOwzDUvXt3rVy5 0uFz/Pz89OSTT+qDDz7QTz/99OfBXmFhYdq/f79mzpypZs2aOXz9vn379Oyzzzq92esMZcqUUbdu 3TR16lR99913+vXXX3X27FndvHlT4eHhCg4O1q5duzRr1ix16tTpHx9c/dvKlSs1Y8aMVNXv0qWL 3btTw8PDtXz58lR/PY7Mnz/f7viIihUrZuv/FlvO1UNqDQ71AgDXO3jQMPr1M4ycOd1zCJiXl2E8 9ZRhfP89h4AB2UBGOowByI4WL17s8HCZzZs3p3if4ODgFB+Qs2PHDrsHK4WHh6e43rJlyxzmXr9+ fYr3uSuthxlFR0cbUVFRfz5GjRpld59x48b943n3esTExCRb19GhXv7+/v/458KFCxsfffSRER8f f8/vwbfffmvkzZvX4fd10aJFqfqeutKUKVMM/e2gpzVr1qT6ILq4uDjj888/NwoXLuzwa542bZqL voK02bhxo8OD7CQZ3bp1S9Gfo/379xvVqlX7x2u9vLwMPz+/NP05sGfixIkOc3p6ehrDhg0zLl68 mKK9duzYYVSvXt3hfu+++26q8znzUK+7h+aVL1/eGD9+vHHo0KFU73H58mVj0KBBDn9//fz8Un3Q 3ujRo+3u9fDDD6c6nz0JCQl2D3KUZLz99ttOqXEvGel9pDsP9fJK2qIFAGQ6tWpJ8+ZJ06ZJCxdK H3xg7azX+Hhp6VLzUa2aNHCg1L27FBBgXQYAWc+QIZIL5g0iG6lVS5o5090pnC65O5i2bdum5s2b p2gfe3e45siR4x/zY++qX7++/Pz8FB0d/ee1u3NkO3bsmOZ6kuTl5aXGjRunaA9n8PX1/cc///vO w7u8vLzk5+fn8jwRERF//rpy5cpav369ypQpk6LXPvbYY9qyZYsaN25s9+7o+fPn69lnn3VW1HQp VKiQxo8fr0GDBqlgwYJp2sPLy0vdu3fXY489pscee0w//fRTkudMmzZNAwcOTDL32B3i4uI0ePBg h3eDzpgxQ8OHD0/RXnXq1NH+/fvVtm1bbdmyRZJ5J7SzDso6cOCAJk6caHetcOHCWrx4cbJ3vv7b ww8/rD179qhz587atGlTkvWxY8eqa9euCgwMTHPm9Khfv77eeOMNde7cWR4eafvh8cKFC+v999/X 448/ro4dOyb5MxgdHa0pU6Zozpw5Kd5zwIABmjZtmhISEv5xfefOnfrtt990//33pynrXd99953d gxz9/Pz0/PPPp2tvpA4NWQDISvLkkV58URo8WNq2zWzMrl4t/ev/0F3qyBGzIfvKK9Jzz5m/rlrV uvoAso5DhyQ7P04NZHdFihTR/fffb/fH/1MzRsDR/FgfH58k1318fNSgQYMk+2/fvj3FDVlH82Pr 1q0rf3//FO2RlRUpUkTbt29XkSJFUvW62rVra8yYMXrttdeSrG3fvl1nz55V6dKlnRUzzXr37u20 vQoUKKCNGzfqwQcfTDI39tq1a1q+fLl69OjhtHpp9dlnn+mEg5skRowYkeJm7F2+vr5/Hup18OBB Z0T806BBg+w2d/39/bVx40bVrFkz1Xv6+/trzZo1qlevng4fPvyPtYiICE2dOlWzZs1Kc+b0WLhw odP2atWqlZYuXarHH388ydqiRYs0Y8aMFH9AUKpUKbVp08bujNd58+ZpZjo/ZHR0mFeXLl2UP3/+ dO2N1GGGLABkRTab1KyZtHy5FBIivf66lMzMLZeIiDAbwtWqSU2aSMuWSS44eAAAgOwouTmyd+7c SdEeKZ0fe5e9ObIpPdjrypUrzI+9h88//zzVzdi7hg4dqgA7P5lkGIb27NmT3mgZUt68eR02p5Yu XWpxGvveeecdu9crVqyoyZMnp2lPf39/zZ8/P813ddqzbt06/fjjj3bXFi5cmKZm7F1+fn5asmSJ 3Xmr8+fP/8cd4plZ+/bt9cQTTyS5HhERoXXr1qVqL0eHe3322Wf/+CmF1Dp//rzDLAMGDEjzvkgb GrIAkNWVKCFNmCCdO2c2Re38Zcrlvv9eeuopqXRpszkcFmZ9BgAAshBHTcy4uDjt3r37nq8PDg7W uXPnkly313RNbu3w4cMKDw+/Z73k7tylISs1b95cLVu2TPPrc+TIoU6dOtld+/nnn9O8b0bXrl07 u3f/7tixw+2He/300086duyY3bV33nkn2QOh7uWBBx5Q37590/z6f/vf//5n93rTpk3VuXPndO9f pUoVde3aNcn1yMhIpx5W5W6DBg2ye/3uiImUat26tcqXL5/k+h9//KFly5alKZskffzxx0lGIUhS tWrV1KhRozTvi7ShIQsA2YW3t/Tkk9L27eZYgUGDrJ/xeumSNGmSVKaM9MQT0pYt5rFgAAAgVZo0 aSKbzWZ3LSV3rdprkPr5+al+/foOX2NvnIFhGHbvtE1JPckchfDQQw/d8/VZ3ZAhQ9K9h6M5vIey +CzuoKCgJNciIyN1/PhxN6T5y4oVK+xeL1u2rNq2bZvu/QcPHpzuPSTpwoULdme8StKECROcUkNy nPfbb791Wg13e/jhh+2OJti/f3+q9rHZbA7vWHU0cuBeEhISNH/+fLtr/fv3T9OeSB8asgCQHVWt Kr3/vnT+/F9jBayUkCCtXCm1aCHdf7/03nvSjRvWZgAAIBMrWLCgqjqY0Z6SObKO5sf++8Crv/Pz 87N74Fda60nmwTo5c+a85+uzMl9fX7Vo0SLd+9SoUcPu9cuXL6u+hA0AACAASURBVKd774ysVKlS dq8fPXrU4iT/x96dx+lc7/8ff1yzYCzZEhmyRETK2CohqSjSXrTolLRQnbSeokXLaV+1qLQ5orSp 0CJZKy1CZMu+DEmSfZvl98fn1/mecg0z5prPbI/77Ta32+nzmfm8n2ocl+e8r9f7r7LaFXnhhRfG 5PmNGzfO1SiBP40ZM4aMjIw9ricnJ8f0sL2WLVtywAEH7HE9J3OvC7qEhISoh5TNnTs3y4PdstKz Z8+ohwp+/fXX/PTTTznO9vHHH7Ny5co9rpcuXZoePXrk+HnKPQtZSSrOypWD3r1h1iyYPBm6d4eE kM97XLAArr8ekpPhyis9UV2SpGzK6q3+33//PVu3bt3r10bb1bq3cQV7+5x97chdu3ZtlrsVc3Jq e1HVokWLqMVLTmV1Wv3GjRtz/eyC7MADD4x6fVU+jsjatWtXljuTY7E79k9du3bN9TOy+v3btWvX LHfh74+4uLioO/DXrVvH6tWrY7ZOfov2/bhjx45sjXb5X5UqVaJbt25R7+3PLtmsvqZ79+6UL18+ x89T7lnISpKCQ8DatoU334SVK4OxAjVqhJth2zYYPBhSUuC442DYMNi5M9wMkiQVIlkVsmlpaXz5 5ZdZft3ixYuj7pTa24Fef4pWyM6ZM4d169Zl+TXOj927ww47LCbPibb7EAp+Ibt582Y+/vhjHn74 YS6++GJatGhB/fr1qVatGmXKlCESiez1I6u3W//6668h/0r+z7x580hLS9vjelxcXJY7mfdH06ZN c/2MrGYMx2L37d9l9UODBQsWxHyt/bV48WKGDRvGbbfdRpcuXWjSpAm1a9emcuXKlChRYp/fj1On To363P35fszqcK+hQ4dm+/BGgBUrVvDJJ59EvedhXvkn5G1QkqQCr1o1uOMOuO02GD06GGmQxVyp PPP118HHDTfA5ZfD1VcHB4JJkqT/Ov7444mLi4v6duMJEybQqVOnqF8XbUdcyZIl9zo/9k+tW7cm MTHxLwcm/TlH9txzz832ehCMQDjmmGP2uWZRV7FixZg8J9rsSiBHxU1YMjMz+eijjxg2bBijR49m +/btMV8jP3/dS5YsiXq9Xr16Wf532h+5LWTT0tJYtGhR1HsNGzbM1bOjqVy5ctTrqampMV8rJ9av X8/rr7/OW2+9leN5r9m1P9+PrVq1okWLFntk2rhxIyNGjOCyyy7L1nNefvnlqH9OpKSk0LJlyxzn Umy4Q1aSFF1CApx5JowdC/PnQ9++EPbbWdatg4cegjp14PTT4dNPIcqLCUmSiqNKlSpludtub7tS o9075phjsvW2+TJlytC8efNcrwdBubu3mbXFRYUKFfL0+TmdXZnXfvjhB1q3bs2ZZ57JO++8kydl LMDOfHyn1Zo1a6JeT05Ojuk6uX1eampq1KIOgt3r+9oNmtOPJ554IupaGzZsyNWvY39lZGQwaNAg DjvsMG6++eY8K2Nh/78fe/fuHfV6dscWpKWlZXmYl7tj85eFrCRp3xo0gCefDA4BGzwYYvD2qBzJ zIRRo+DUU+Gww+Dxx+H338PNIElSAZTVW/5/+OEHNm/eHPVetPmx2RlX8KeczJH95Zdfsnw7suMK ArGc01nQPfTQQ7Rq1Ypvvvkmz9fKzyI6qzERWY2V2F+lSpWiRIkS+/31exs1Eqa8KuX3Zv369bRv 354+ffrwewh/r9jf78cLLrgg6i76b7/9lh9//HGfXz969OioM3rLlSsXswPmtH8sZCVJ2VemDPTq BdOnw9Sp0KMH5OJF4H5ZvBhuvjk4BOyyyyAPf5ItSVJBl9M5sosWLYp62FF2DvTa2+fOnTs36oxE 58fqT/fffz+33357ljsyi5KsdkPGupDN7TPzowiN5n9HoIRh8+bNnHzyyUyZMiXUdfdHUlISl156 adR72dklm9XnXHTRRZQtWzY30ZRLzpCVJOVcJALHHBN8PP44vPoqvPACLFsWXoYdO+D114OPli2h Tx/o1g2SksLLIClvhb0bX0VPMfgeateuHfHx8aSnp+9xb8KECZx66ql7XPu7kiVLcuyxx2Z7zTZt 2kRdc+LEiZx//vn7XA+gdOnStGrVKttrqnD74osvuOuuu/b6OdWrV6d9+/akpKRQv359qlevTpUq VShbtiwlS5YkISEh6m7i119/Pcu3dRc0ebFrNzfPjHbwWH4IezfzNddcw4wZM7K8H4lEaNasGa1b t6ZJkybUqVOHatWqUaFCBcqWLUtCQgIJCdHrtBNPPJGvv/46pnl79+7NU089tce/pzfeeINHH300 y7nEy5YtY+zYsVHvZXUYnsJjIStJyp0qVeBf/wp2rX76aXAI2CefBGMGwvL998Fu2RtvhJ49oXdv OPTQ8NaXlDeeeiq/E0gFXvny5UlJSYk6+zDa7tRo144++uhszY/9U7ly5aKuGa2QzWqHbJs2bUhM TMz2miq8MjIyuO6667Is3Y477jjuu+8+2rdvX2TGN2Q1GzmrMSK5kZtn5uT3fVExdepUhg4dGvVe fHw8ffv25frrr6dmzZr79fxoPxzLrfr163PSSSfx+d8OWt68eTPDhw/niiuuiPp1L730UtQd6Ucf fXSuD4RT7jmyQJIUG/Hx0KULjBkDCxfCLbdApUrhZtiwIdixW69eMG921CjIgxdFkiQVJFm99X/6 9Ols2rTpL9eizY/NybiCvX3N38vXNWvW8PPPP0f9escVFB+ffPIJ8+bNi3qvd+/eTJo06b8HSO2P /DoQam+yOqjt778fc2vHjh3s2rVrv7++XLlyWd5bt24d27dvD+Xj9ttv3+9fQ05ldbBYUlISn332 GY899th+l7GQd9+Pffr0iXo9q5EEu3fv5rXXXot6z8O8CgYLWUlS7B16KDzyCKxaBUOGQH68JfHT T+H004MsDz4IUebaSZJUFGRVbqanp/9lRuLChQtJTU3d4/NycqDXn6IVsvPmzWPt2rX//Wfnxwrg 7bffjnq9VatWPPPMM8THx+fq+WEcyJRTBx98cNTr0eY350Zun7e34jE1NZVSpUqF8pHb74Hs2r59 O6NGjYp675FHHuHEE0/M9Rp59f3YtWvXqP+9fvjhB3744Yc9rn/44Yf88ssve1yvUKEC3bp1y5OM yhkLWUlS3klKgksugW+/DcYK9OwJYb81avly6NcPataEiy+Gr78Od5yCJEl5rG3btlnOM/zfUjTa PNcSJUrkaH7s/64ZF7fnXyf3tR4Eu/KaN2+e4zVVOGV1cNItt9wSkyJu8eLFuX5GrNWtWzfq9UWL FrFly5aYrbO3OajZUb58eSpXrhz13sKFC3P17ILo+++/j3rgWsWKFWMyU/WPP/5g/fr1uX5ONPHx 8Vx55ZVR70XbJZvVztlLLrmEJM/cKBAsZCVJ4WjRAl55BVJT/2+sQJh27YJhw+C446BZMxg8GLZu DTeDJEl5oGzZslkWnP9bikbbsdqqVav9+st5hQoVOPLII3O8Huy9QFbRsnPnTpYvX77H9UgkQufO nWOyRqwPUIqFhg0bRv0ez8zMZNasWTFbZ+bMmbl+RosWLaJeHz9+fK6fXdAsWLAg6vWOHTvGZKb1 1KlT8/SAsiuuuCJqzjfffPMvs4QXL17MF198EfUZHuZVcFjISpLCValScPjWggXw2WdwxhkQZYdN npo5E668EpKT4frrgyySJBViWY0AmDlzJhs3bgSiz4/dn3EFf9rbHNnVq1dnucOuQ4cO+71mXoi2 0xeIehiOcmb9+vVR/z1WqlSJ0qVL5/r5c+bM+cuYjIKiRIkSNGvWLOq90aNHx2ydrN5+nxPt2rWL ev2jjz7K03IxP6xbty7q9Ro1asTk+XldYletWpWzzz57j+tbtmxh2LBh//3nl156Kep/u7Zt29Ko UaM8zajss5CVJOWPuDjo2BE++ACWLAnGClSpEm6GjRth4EBo2BBOOgnefx/S0sLNIElSDOxtjuzk yZNZsGABq1ev3uN+rAvZBQsWsGbNmizHFewta34pUaJE1Ovbtm0LOUnRs3v37qjXY/WW6UGDBsXk OXnhpJNOinp9+PDhMSk6f/zxR2bPnp3r55x55plRr6empvLJJ5/k+vkFSV5+P+7YsYPXX38918/Z l30d7rVr164sc7g7tmCxkJUk5b9ateDf/4aVK2H4cGjTJvwMX3wB55wDtWvDfffBmjXhZ5AkaT+1 adMmy7fcTpw4Mer4gMTExP2aH/undu3aEYlEsr0eBKMOmjZtut9r5oXy5ctHvZ5XsyCLk4oVK0a9 vm7dOtLT03P17N9++40hQ4bk6hl5KdpORoDly5fHZGfrM888k+tnADRq1IiWLVtGvXfbbbcVqZ3i WX0/ronB6/4hQ4bw22+/5fo5+9KuXTuOOOKIPa7PnDmT7777jpEjR/JrlMOMK1euzLnnnpvn+ZR9 FrKSpIKjZEm44AKYMiUYK3DVVVCmTLgZUlPhrrvgkEOgWzeYNMlDwCRJBV7p0qVp1apV1HsTJkzI cn5sbt42XrlyZRo3bpzt9SDYVZvViID8cvDBB0e9ntW8SWXfAQccQMmSJfe4vnPnTqZOnZqrZ191 1VUxPSAr1po3bx719wfAjTfeGPVwqeyaNm0ar7322n5//d/17ds36vXZs2fz8MMPx2yd/FYli3fj ZfX/V9m1cuVKbrvttlw9Iyd69+4d9fqLL76Y5WFel156adTfi8o/BetPQkmS/nTUUfDCC0FB+udY gTClpcHbb0P79tCkCTz/PGzaFG4GSZJyIKtRAD/++COff/75HtejjRzIqWjP+OCDD1i0aFHUzy9o 4woAGjRoEPX6t99+yyb/7M+1rHZEP/300/v9zGeffZb3339/v78+LDfddFPU64sXL+bWW2/dr2du 3LiRnj17xnTnavfu3UlJSYl6r3///owYMSJma/2v7du3kxbiuLCsfo2LFy9mzJgx+/XM7du3c9FF F/HHH3/kJlqO9OjRg3Llyu1xffjw4VHL5Ugk4riCAshCVpJUsJUvD9ddB3PnwvjxcO65EB8fboY5 c+Caa4JDwPr0gZ9+Cnd9SZKyIauyMyMjI+rb73MzP/ZP0QrZrA7OgYJZyDZq1ChqubFr1y7uvvvu fEhUtHTq1Cnq9XfffZehQ4fm+HmPP/441113XW5jhaJHjx4cfvjhUe8NHDiQBx98MEfP2759O6ef fnpMZsf+r7i4OAYNGkRCQsIe9zIzM7nooou49957Y1YCp6am0r9/f2rWrBnK2/z/1LBhQ2rVqhX1 Xp8+fUhNTc3R8zZu3EjHjh2ZMmVKLOJlW7ly5bj44ov3uL5jx46o84k7dOhA/fr1w4imHLCQlSQV DpEInHACvPMOLF8Od98NWbzFMM9s2QKDBgU7Zo8/HkaMgF27ws0gSVIWWrdune23pCYmJtK6detc r5nVCe3RVK5cmSZNmuR6zViLj4/nlFNOiXrvqaeeokOHDrz++uvMmjWL3377jW3btrFjx449Pnb5 miCqCy+8kPgsfpjes2dPHnzwwWzNk120aBFnnHEGN99881+uV65cOSY580JCQgLPPvts1FnLAP36 9eO8886LOvPz76ZOnUpKSgqTJ0/+77XExMSYHZB29NFHc99990W9l56ezt13303r1q354IMP9quY Xbt2LS+//DJdu3alTp06PPDAA/kypzlakQmwYsUK2rZty9dff52t57z77rs0bdqUL7/88r/XIpEI lSpViknOfcnqcK9o3B1bMFnISpIKn+RkGDAgKGbfeScoasM2eTJ07x4cSHbXXbBqVfgZJEn6H6VK leKYY47J1ue2aNGCMjGY0161alUaZnOsUPv27bMspvJbVjMZIZiJe9lll3HUUUdRpUoVypQpQ1JS 0h4fjRo1CjFx4dGgQYMsS7C0tDT69etHvXr1uP/++5k8eTKrV69my5YtpKamMn36dF566SVOO+00 GjduzEcfffSXr69duzb9+vUL45ex3zp06JDl6AIIir1DDz2USy65hA8//JC5c+eyYcMG1qxZww8/ /MBLL71Ehw4daNOmzR5zjfv37x/TAvC2227jyiuvzPL+t99+y1lnncWhhx7KlVdeyZAhQ5g+fTrL li1j48aNbNy4kRUrVjB79mzGjx/PwIEDufzyy2nevDnVq1fniiuuYPTo0ezevTtmmXPq5ptvpkKF ClHvLV26lDZt2tCpUydeffVVfvrpJ3777Tc2bdrEokWLmDRpEnfeeSdNmjThvPPOY9myZX/5+htu uCHLHdGxdsQRR9C2bdt9fl7VqlU588wzQ0iknNpzP7okSYVFYmIwwuDcc4ORBoMGwZAhsHlzeBl+ +QXuuw8eeABOPz0YaXDiicGOXkmSQnbCCScwadKkfX5eLMYV/On4449n/vz5+/y8gjiu4E8nnHAC Z511FiNHjszvKEXSgw8+yLhx47J8S/iyZcu48847c/TMcuXK8d577zF9+vRYRMxTDz30EPPmzcty TumWLVsYOnRojkY4dOjQgX79+jF48OBYxQRg0KBBlCpVioEDB2b5OcuWLWPw4MExXzsMFSpUYODA gVxyySVR72dmZjJ27FjGjh2bo+d26NCBBx98kA4dOsQiZrb06dNnn+MSevbsSWJiYkiJlBPukJUk FQ2NGsEzz8Dq1f83ViBM6ekwciScfHJwANnTT0OIw/0lSYLsl56xLGSzO7agIBeyAEOGDOG4447L 7xhF0sEHH8yoUaMoW7ZsTJ5XoUIFRo0aRbNmzWLyvLwWHx/PO++8w2mnnRaT57Vs2ZL33nsvT4q2 uLg4nn76aQYPHhyTXfQFUY8ePejfv3/MnteuXTtGjhxJiRIlYvbM7DjnnHOoWrVqlvfj4uL2uuNZ +ctCVpJUtJQtC1dfDT/+CFOmwAUXBDtpw/Tzz9C3L1SvDldcATNmhLu+JKnYOuaYY/Y5UzIhISEm 82P/FO1gr7+rWrVqgX9Lf7ly5ZgwYQKPPvoo1apVy+84RU5KSgrffPMNDRo0yNVzmjZtyjfffJOt 77uCJCkpiZEjR3L77bcTF7f/VUz37t2ZOHFilm+7j5VevXoxa9Yszj777Dx5fkpKCk8++WS+zQC+ //77ee6553JVosbFxXHttdcybtw4DjjggBimy57ExER69eqV5f2OHTtSu3bt8AIpRyxkJUlFUyQC bdrA8OGwYgXcfz/UrBluhu3b4eWXoVkzOPZYeOMN2LEj3AySpGKlRIkS+yxbW7RoEbOdigDJycnU q1dvr58Tyx25eSkxMZGbb76ZFStW8Pnnn9OvXz+6dOnC4YcfTuXKlSlZsmSBnYNbGDRu3Jhp06Yx YMCAHBdx9erV47nnnmPatGm5LnXzS0JCAg888ADTpk3jlFNOydH3UvPmzRk1ahRvvvkmpUuXzsOU /6du3bq89957zJw5k169euWqBP7zB0F33XUXs2fPZvr06fTt2zdf307fp08fvv/+e84555wcleRx cXF06dKFqVOn8swzz+Trr+GCCy7I8t7VV18dYhLlVCQzMzPvF4lE5gB7/Di0UaNGzJkzJ8/XlyQJ gLQ0GDMGnn8ecjgXKmYOPBB69YKrrgJ/Yq1CaufOnSxZsmSvn1O3bt1sn/YuSfujRo0aUWeSrly5 kho1auRDIuXE1q1b+fjjj5kwYQLfffcda9euZf369aSlpVGmTBkOOugg6tevT4sWLejYsSPHHnts 1AIzLS2NHVF+4J2YmFjg/xxauHAh77//PpMmTWLevHn8+uuv7Ny5k9KlS1O5cmUaNmxIq1at6Nq1 Ky1atMjvuKSlpTFlyhS++uorZsyYwdKlS0lNTWXz5s3s3LmTUqVKUa5cOcqVK8fBBx9MgwYNaNiw IY0bN6ZNmzYx/UFQrC1evJgxY8YwceJE5s2bx/r169mwYQMJCQmUK1eOQw45hIYNG9K2bVs6d+5M zSw2emzfvp309PQ9rpcuXTpXO6Oz8txzz3HttdfucT05OZnly5cTHx8f8zVzqyC9jmzcuDFz586N dmtuZmZm47xc20JWklQ8/fwzvPACvPZa/sx6jUSgS5fgELBOnSAPXqBJeaUgvZCWJEkqrpo1a8aM KOPR7r77bgYMGBB+oGwoSK8j87OQ9W9/kqTi6bDD4IknIDUVXnklGCsQpsxMGD0aOneG+vXhscdg /fpwM0iSJEkqlKZNmxa1jI2Pj9/rbFkVDBaykqTirXRp6NkTpk2Db76BSy6BsHf1LVkCt9wCyclw 6aXw3Xfhri9JkiSpUHnuueeiXu/SpYtjWwoBC1lJkiAYIXD00TBkCKxaBQ8/HP6M1507g/WPPhpa tgzGKWzbFm4GSZIkSQXa2rVrGTFiRNR7vXv3DjmN9oeFrCRJf3fggXDrrbBoUXAIWOfOQWEbpmnT gp27NWrATTcFWSRJkiQVe48++ijbt2/f43r9+vXp1KlTPiRSTlnISpKUlfj4oIwdMyYoRG+9FSpX DjfDhg3BrNv69eGUU+CjjyDKya2SJEmSir758+fz7LPPRr13ww03EAl7I4n2i4WsJEnZUbduMMZg 1Sr4z3+CsQJh++wzOOOMIMuDD8Kvv4afQZIkSVK+WL9+Peeddx47d+7c41716tXp2bNnPqTS/rCQ lSQpJ0qVgh49ggPApk2Dyy+HpKRwM6xYAf36BeMMLroIvvoKMjPDzSBJkiQp5tLS0tixY8d/PzZu 3MhPP/3EE088wZFHHslPP/0U9esGDBhAybAPJ9Z+s5CVJGl/NW8OL78Mqanw5JPBWIEw7d4Nw4dD mzaQkgIvvQRbtoSbQZIkSVLMDBgwgKSkpP9+VKhQgSZNmnDTTTexevXqqF/TsmVLLr/88pCTKjcs ZCVJyq2KFaFvX5g/H8aOhTPPhLiQ/4j98Ue46ipIToZ//hPmzQt3fUmSJEmhK1OmDEOGDCEu7L9/ KFf8ryVJUqzExcHJJ8PIkbB0KfTvDwcdFG6GTZvgmWegUSM48UR4771gJ60kSZKkIqVkyZK8/fbb HH744fkdRTlkIStJUl445BC4/35YuRLefDMYKxC28ePh3HOhdm24915Ysyb8DJIkSZJirmnTpkyd OpXOnTvndxTtBwtZSZLyUokS0L07TJkSjBW4+mooUybcDKtXw913ByXx+efDxIkeAiZJkiQVEgkJ CVSuXJmUlBSuuuoqPv/8c6ZPn05KSkp+R9N+imSG8BeySCQyB2j09+uNGjVizpw5eb6+JEkFyqZN MHQoPPdc/s16bdQI+vSBHj3ggAPyJ4MKrZ07d7JkyZK9fk7dunU96VeSJEl/UZBeRzZu3Ji5c+dG uzU3MzOzcV6u7Q5ZSZLCdsABcM01MGcOTJgA550HCQnhZpg7F669FqpXh969YfbscNeXJEmSpGLK QlaSpPwSiUD79vD227B8OQwYEBSkYdq6FV54AY48Etq1g7fegl27ws0gSZIkScWIhawkSQVB9erB nNdly+Ddd+GEE8LPMGUKXHAB1KwJd9wRHEgmSZIkSYopC1lJkgqSxEQ45xwYPz4YK3DddeHPeP31 V/j3v6F2bTjrLPj8c8jICDeDJEmSJBVRFrKSJBVUhx8OAwdCaur/jRUIU0YGfPABdOwYZHnqKdiw IdwMkiRJklTEWMhKklTQlS0LV10FM2fCl1/ChRcGO2nD9PPPcMMNkJwMvXrB9Onhri9JkiRJRYSF rCRJhUUkAscdB8OGBfNd//3vYN5rmLZvh1degebN4dhjYehQ2LEj3AySJEmSVIhZyEqSVBhVrQr9 +sHSpfDhh8FYgbB98w1ccgnUqAH/+leQRZIkSZK0VxaykiQVZvHxcPrp8NlnwViBG2+EChXCzbB+ PTzyCBx6KJx2Gnz8sYeASZIkSVIWLGQlSSoq6teHxx8PDgF75RVo1izc9TMzYcwY6NIF6tWDRx+F 334LN4MkSZIkFXAWspIkFTWlS0PPnjBtGnz7LfzjH1CyZLgZli6FW28Nxhn84x9BjszMcDNIkiRJ UgFkIStJUlEViUCrVvD668Gu2UcegTp1ws2wcyf85z9wzDHQsiW8+ips2xZuBkmSJEkqQCxkJUkq DipXhltugUWLghmvp50WFLZh+uEHuPxySE4OZt0uXBju+oqZSDa+dzKcIyxJkqS/yc5rxOy81izs LGQlSSpO4uLg1FNh1ChYvBj+9S848MBwM/zxBzz5JBx2GHTqBB9+CGlp4WZQrsTHx+/zc9LT00NI IkmSpMIkO68R4+KKfl1Z9H+FkiQpujp14KGHYOVKGDo0GCsQtrFj4cwzoW5deOABWLs2/AzKsey8 SN69e3cISSRJklSYpGVjI0Z2fvhf2FnISpJU3JUqBRdfDFOnBmMFevWCpKRwM6xcCf37Q82acOGF 8OWXHgJWgEUikX2+UN6yZUtIaSRJklRYbN26da/34+LiHFkgSZKKmWbNYPDg4BCwJ5+E+vXDXX/3 bnjzTWjbFpo2hRdfBIu9AilpH6X91q1bnSMrSZKk/8rMzNxnIbuv15hFhYWsJEnaU8WK0LcvzJ8P n38OZ50VzJ8N06xZcPXVUL06XHcdzJsX7vraq7Jly+71fmZmJhs2bAgpjSRJkgq6zZs373OG7L5e YxYVFrKSJClrcXFw0knw/vuwbBnccQdUrRpuhs2b4dlnoVEj6NAB3n032EmrfJWdF8vr1q1zdIEk SZLYtWsXa7NxXkSZMmVCSJP/LGQlSVL21KwJ990HK1bAW29Bu3bhZ5gwAc47D2rVggEDYPXq8DMI gMTEREqVKrXXz8nMzGTlypWsXbs2Wwc4SJIkqWjJzMxk06ZNLF++fJ+vBxMTEylRokRIyfJXJDOE AzMikcgcoNHfrzdq1Ig5c+bk+fqSJCmPzJ4NgwbB0KH5M+s1Pj4Yp9CnD7RvD8XgAICC5LfffmPd unXZ/vySJUtSunRpkpKSSEhIIC4ujriwR2FIkiQpz2Rk66u9WQAAIABJREFUZJCenk5aWhpbt25l 69at+xxT8KdKlSpRNcR34zVu3Ji5c+dGuzU3MzOzcV6ubSErSZJyb9OmoJR9/nmI/qIm7x1+eFDM 9ugB5cvnT4ZiJiMjg6VLl7Jr1678jiJJkqRCLD4+nrp165KQkBDamvlZyLolQZIk5d4BB8A118BP P8HEiXD++RDiiykgOPTruusgOTk4DGzWrHDXL4bi4uKoVq1afseQJElSIVelSpVQy9j8ZiErSZJi JxKB44+HESNg+XK45x6oXj3cDFu3wosvwlFHQdu28Oab4A7OPFOmTBkqVaqU3zEkSZJUSJUuXZoK FSrkd4xQWchKkqS8Ub063HUXLFsG770HJ54YfoYvv4QLLwwOJOvfPziQTDF30EEHWcpKkiQpx0qX Lk3NmjWJFLOzICxkJUlS3kpMhLPPhnHjgrEC//xnMOIgTL/+Cg88AHXqwJlnwtixkJERboYiLBKJ cNBBB1GlSpX8jiJJkqRC4s8ytjge8lr8fsWSJCn/NGwITz8Nq1cHYwWOPDLc9TMy4MMPoVOnIMuT T8KGDeFmKKIikQgHHnggtWvXJikpKb/jSJIkqYCKj4+nWrVqHHLIIcWyjAULWUmSlB/KlIErr4SZ M+Grr+Cii6BEiXAzLFwIN94YHAJ2+eUwfXq46xdRSUlJ1KpVi+TkZEqXLl3s3n4mSZKk6BITE6lU qRJ169alYsWKxfp1YiQzMzPvF4lE5gCN/n69UaNGzJkzJ8/XlyRJhcCvv8Irr8ALL+TfrNejj4Y+ feD886FUqfzJUMRkZGSwfft2tm7dytatW9m5cydhvP6UJElS/oqLiyMpKYmyZctSpkwZSpQoUaBK 2MaNGzN37txot+ZmZmY2zsu1LWQlSVLBkp4OH38Mzz8Pn36aPxkqV4aePeHqq6Fu3fzJUIRlZmaS np5ORkaG5awkSVIREolEiIuLIz4+vkCVr9FYyEqSJEWzaFGwY/bVV/Nn1mskAqeeGuyaPeUUiI8P P4MkSZKkmMvPQtYZspIkqeCqVw8eewxSU+G116BFi3DXz8wMduuedhrUrw+PPAK//RZuBkmSJElF ioWsJEkq+JKS4NJL4fvv4bvvgv9dsmS4GZYuhX/9C2rUgEsugW++CQpbSZIkScoBC1lJklS4tGwZ 7JZNTYVHHw1/xuvOnTB0KBx7bLBj95VXYNu2cDNIkiRJKrQsZCVJUuFUuTLcfDMsXAiffAJduwYz X8M0fTr06gXJyXDDDfDzz+GuL0mSJKnQsZCVJEmFW1xccODWRx/BkiVw221w4IHhZvjjD3jqKWjQ ADp2hA8+gLS0cDNIkiRJKhQsZCVJUtFRuzY8+CCsWgVvvBGMFQjb55/DWWcFoxT+/W9Yuzb8DJIk SZIKLAtZSZJU9JQsCRddBF9/HYwVuOIKKF063AwrV8Idd0DNmnDBBTBlioeASZIkSbKQlSRJRVxK Crz0UnAI2NNPB2MFwrR7N7z1FrRrB0cdBS+8AJs3h5tBkiRJUoFhIStJkoqHChXgn/+EefNg3Dg4 +2yIjw83w+zZ0Lt3cAjYddfB3Lnhri9JkiQp31nISpKk4iUSgRNPhPfeg2XL4M47oWrVcDNs3gzP PguNG8MJJ8A77wQ7aSVJkiQVeRaykiSp+KpRA+69F1asgBEjgrECYZs4Ec4/H2rVggEDgtEKkiRJ koosC1lJkqQSJYJSdNKkYKxAnz5Qtmy4GdasgXvuCYrZc8+F8eM9BEySJEkqgixkJUmS/tcRR8Bz z8Hq1fD888FYgTClpwfjFE48ERo1gmeegY0bw80gSZIkKc9YyEqSJEVTrlxwANfs2cHO2W7dICEh 3Azz5wcHkVWvDlddBT/+GO76kiRJkmLOQlaSJGlvIpFgtuxbb8HKlcHM2eTkcDNs2wYvvQRNm0Kb NjB8OOzcGW4GSZIkSTFhIStJkpRd1arBnXfCsmXw/vvBWIGwffUVXHQRHHII9O8fHEgmSZIkqdCw kJUkScqphAQ46ywYNw7mzYPrr4fy5cPN8Ouv8MADUKcOnHEGfPYZZGSEm0GSJElSjlnISpIk5UbD hvDUU5CaCoMHB2MFwpSRAR99BKecAg0awBNPwO+/h5tBkiRJUrZZyEqSJMVCmTLQqxdMnw5ffw0X XwwlSoSbYdEiuOmmYMZtz54wbVq460uSJEnaJwtZSZKkWIpE4NhjYehQWLUKHnwQatUKN8OOHfDa a9CyJRx9NAwZAtu3h5tBkiRJUlQWspIkSXmlShW47TZYvBhGjQrGCoTtu+/g0kuhRg245RZYsiT8 DJIkSZL+y0JWkiQpr8XHw2mnwSefBGMFbr4ZKlUKN8Pvv8Njj0G9etC5M4weDenp4WaQJEmSZCEr SZIUqkMPhUcfDcYZvP56MFYgTJmZQTHctWtQzj78MKxbF24GSZIkqRizkJUkScoPSUnwj38EIwW+ +w4uuwxKlQo3w7JlwUiFGjWgRw+YOjUobCVJkiTlGQtZSZKk/NayJbz6KqSmBmMFDj003PV37YI3 3oDWraF5c3j5Zdi6NdwMkiRJUjFhIStJklRQVKoEN90EP/8Mn34Kp58OcSG/XJsxA664ApKToW9f WLAg3PUlSZKkIs5CVpIkqaCJi4NOneDDD2HJErj9dqhSJdwMGzfC009Dw4Zw8skwciSkpYWbQZIk SSqCLGQlSZIKslq14IEHYOVKGDYsGCsQtnHj4OyzoU4duP9++OWX8DNIkiRJRYSFrCRJUmFQsiRc eCF89VUwVuDKK6F06XAzrFoFd94JNWtC9+4webKHgEmSJEk5ZCErSZJU2DRtCi++CKtXB2MFGjQI d/20NBgxAo4/Ho48EgYNgs2bw80gSZIkFVIWspIkSYVV+fLwz3/CvHnwxRdwzjkQHx9uhp9+gj59 oHp1uOYamDMn3PUlSZKkQsZCVpIkqbCLRKBDB3j3XVi+HO66C6pVCzfDli3w/PNwxBHQvj28/Tbs 2hVuBkmSJKkQsJCVJEkqSpKT4Z57YMWKoBRt3z78DJMmQbduwYFkd90VzJ6VJEmSBFjISpIkFU2J iXDeeTBhQjBW4JproFy5cDP88gvcdx/Urh2MU/jiCw8BkyRJUrFnIStJklTUNW4Mzz4Lqan/N1Yg TOnp8P77cNJJcPjhMHAg/PFHuBkkSZKkAsJCVpIkqbgoVw5694ZZs2DyZOjeHRISws2wYAFcf30w WuHKK2HmzHDXlyRJkvKZhawkSVJxE4lA27bw5puwcmUwVqBGjXAzbNsGgwdDSgocdxwMGwY7d4ab QZIkScoHFrKSJEnFWbVqcMcdsHQpjBwJJ58cfoavv4aLL4aaNeH222H58vAzSJIkSSGxkJUkSVIw uuDMM2HsWJg/H/r2hfLlw82wbh089BDUqQOnnw6ffgoZGeFmkCRJkvKYhawkSZL+qkEDePLJ4BCw l18OxgqEKTMTRo2CU0+Fww6Dxx+H338PN4MkSZKURyxkJUmSFF2ZMnD55fDDDzB1KvToASVKhJth 8WK4+ebgELDLLoNp08JdX5IkSYoxC1lJkiTtXSQCxxwD//kPrFoVjBWoXTvcDDt2wOuvQ8uW0KpV 8L+3bw83gyRJkhQDFrKSJEnKvipV4F//gkWLYPRo6Nw5KGzD9P33wW7Z5ORg9+zixeGuL0mSJOWC hawkSZJyLj4eunSBMWNg4UK45RaoVCncDBs2BPNl69UL5s2OGgXp6eFmkCRJknLIQlaSJEm5c+ih 8MgjwTiDIUPg6KPDz/Dpp3D66UGWhx6CdevCzyBJkiRlg4WsJEmSYiMpCS65BL75Jjh8q2dPKFUq 3AzLl8Ptt0ONGnDxxcFhZJmZ4WaQJEmS9sJCVpIkSbHXvDm88gqkpv7fWIEw7doFw4ZB69bQrBkM Hgxbt4abQZIkSYrCQlaSJEl5p1IluPFGWLAAPvsMzjgD4kJ+CTpzJlx5ZXAI2PXXB1kkSZKkfGIh K0mSpLwXFwcdO8IHH8CSJdCvH1SpEm6GjRth4EBo2BBOOgnefx/S0sLNIEmSpGLPQlaSJEnhqlUL /v1vWLkShg+HNm3Cz/DFF3DOOVC7Ntx3H6xZE34GSZIkFUsWspIkScofJUvCBRfAlCnBWIGrroIy ZcLNkJoKd90FhxwC3brBpEkeAiZJkqQ8ZSErSZKk/HfUUfDCC0FB+udYgTClpcHbb0P79tCkCTz/ PGzaFG4GSZIkFQsWspIkSSo4ypeH666DuXNh/Hg491yIjw83w5w5cM01wSFgffrATz+Fu74kSZKK NAtZSZIkFTyRCJxwArzzDixfDnffDQcfHG6GLVtg0KBgx+zxx8OIEbBrV7gZJEmSVORYyEqSJKlg S06GAQOCYvadd4KiNmyTJ0P37sGBZHfdBatWhZ9BkiRJRYKFrCRJkgqHxMRghMH48cFYgWuvhXLl ws3wyy9w331QuzacfTaMG+chYJIkScoRC1lJkiQVPo0awTPPwOrVwWFgTZqEu356OowcCSefHBxA 9vTT8Mcf4WaQJElSoWQhK0mSpMKrbFm46ir48UeYMgUuuCDYSRumn3+Gvn2D0QpXXAEzZ4a7viRJ kgoVC1lJkiQVfpEItGkDw4fDypVw//1Qs2a4GbZtg5dfhpQUaN0a3ngDduwIN4MkSZIKPAtZSZIk FS1Vq0L//rBkCXzwAXTsGH6GqVOhR4+gFL79dli2LPwMkiRJKpAsZCVJklQ0JSTAGWfAZ5/BggVw ww1QoUK4GX77DR56COrWha5d4ZNPICMj3AySJEkqUCxkJUmSVPQddhg88QSkpsIrr0CzZuGun5kJ o0dD585Qvz489hisXx9uBkmSJBUIFrKSJEkqPkqXhp49Ydo0+OYbuOQSKFky3AxLlsAttwSHgF16 KXz/fbjrS5IkKV9ZyEqSJKn4iUTg6KNhyBBYtQoeeQTq1Ak3w86dwfqtWkHLlvDaa7B9e7gZJEmS FDoLWUmSJBVvBx4Y7FhduBDGjIEuXYLCNkzTpgU7d5OT4eabYdGicNeXJElSaCxkJUmSJID4+GDG 6+jRQSF6661QuXK4GTZsgMcfD+bMnnIKfPQRpKeHm0GSJEl5ykJWkiRJ+ru6deHhh4NxBv/5TzDe IGyffQZnnBFkefBB+PXX8DNIkiQp5ixkJUmSpKyUKgU9egQHgE2bBpdfDklJ4WZYsQL69YMaNeCi i+CrryAzM9wMkiRJihkLWUmSJCk7mjeHl1+G1FR48slgrECYdu+G4cOhTRtISYGXXoItW8LNIEmS pFyzkJUkSZJyomJF6NsX5s+HsWPhzDMhLuSX1T/+CFddFRwCdv31QRZJkiQVChaykiRJ0v6Ii4OT T4aRI2HZMujfHw46KNwMmzbBwIFw+OFw4onw3nvBTlpJkiQVWBaykiRJUm7VrAn33w8rV8KbbwZj BcI2fjycey7Urg333gtr1oSfQZIkSftkIStJkiTFSokS0L07TJkSjBW4+mooUybcDKtXw913wyGH wPnnw8SJHgImSZJUgFjISpIkSXnhyCNh0KCgIH322WCsQJjS0uCdd+CEE+CII+C554IRB5IkScpX FrKSJElSXjrgALjmGpgzByZMgPPOg4SEcDPMnQvXXgvVq0Pv3jB7drjrS5Ik6b8sZCVJkqQwRCLQ vj28/TYsXw4DBgQFaZi2boUXXgh277ZrB2+9Bbt2hZtBkiSpmLOQlSRJksJWvXow53XZMnj33WCs QNimTIELLghmzd55Z3AgmSRJkvKchawkSZKUXxIT4ZxzYPz4YKzAddcFIw7CtHYt3H8/1K4NZ50F n38OGRnhZpAkSSpGLGQlSZKkguDww2HgQEhN/b+xAmHKyIAPPoCOHYMsTz0FGzaEm0GSJKkYsJCV JEmSCpKyZeGqq2DmTPjyS7jwwmAnbZh+/hluuAGSk6FXL5g+Pdz1JUmSijALWUmSJKkgikTguONg 2LBgvuu//w01a4abYft2eOUVaN4cjj0Whg6FHTvCzSBJklTEWMhKkiRJBV3VqtCvHyxdCh9+CJ06 hZ/hm2/gkkuCUvi224IskiRJyjELWUmSJKmwiI+H00+HTz8NxgrceCNUrBhuht9+g4cfhkMPhdNO g48/9hAwSZKkHLCQlSRJkgqj+vXh8cdh1Sp49dVgrECYMjNhzBjo0gXq1YNHHw3KWkmSJO2Vhawk SZJUmJUuDZddBt9/D99+C//4B5QsGW6GpUvh1luhRo1g/W+/DQpbSZIk7cFCVpIkSSoKIhFo1Qpe fx1SU+GRR6BOnXAz7NwJ//kPHHMMtGwZ7Nzdti3cDJIkSQWchawkSZJU1FSuDLfcAosWBTNeTzst KGzD9MMPcPnlkJwczLpduDDc9SVJkgooC1lJkiSpqIqLg1NPhVGjYPFi+Ne/4MADw83wxx/w5JNw 2GHQqRN8+CGkp4ebQZIkqQCxkJUkSZKKgzp14KGHYOVKGDoUjj02/Axjx8KZZ0LduvDAA7B2bfgZ JEmS8pmFrCRJklSclCoFF18MX38djBXo1QuSksLNsGIF9O8PNWvChRfCl196CJgkSSo2LGQlSZKk 4qpZMxg8ODgE7MknoX79cNffvRvefBPatoWmTeHFF2HLlnAzSJIkhcxCVpIkSSruKlaEvn1h/nz4 /HM466xg/myYZs2Cq6+G6tXhuutg3rxw15ckSQqJhawkSZKkQFwcnHQSvP8+LFsGd9wBVauGm2Hz Znj2WWjUCDp0gHffDXbSSpIkFREWspIkSZL2VLMm3HdfMO/1rbegXbvwM0yYAOedB7Vrwz33wOrV 4WeQJEmKMQtZSZIkSVkrUQK6dYNJk4KxAr17Q9my4WZYvRoGDIBDDgkK2gkTPARMkiQVWhaykiRJ krKnSRN4/vngELA/xwqEKT09GGHQoQM0bhxk2Lgx3AySJEm5ZCErSZIkKWcOOACuuQZ++gkmToTz z4eEhHAzzJsXHP6VnBwcBjZrVrjrS5Ik7ScLWUmSJEn7JxKB44+HESNg+fJgzmv16uFm2LoVXnwR jjoK2raFN9+EXbvCzSBJkpQDIf8Y+69WbdhOtxen5mcESZIkSbFS9WTi+59A81lf0nHS+zSZPy3c 9b/8Er78kj/KVWT8cV0Z1+5M1leqFm4GSZJUKKzasD3f1o5khjAMPxKJzAH2GDCVWPkQqvd6Ps/X lyRJkhS+Q9ev5OIZH3PO7C84YNe20NdPj8TxRb1WDE3pzJe1m5IZ8Q2CkiQpsPrlPuxevyLarbmZ mZmN83JtC1lJkiRJeSpp1w7OmDuRS2aModGvS/Mlw5KK1RmW0pl3mpzEplJl8yWDJEkqOCxkJUmS JBV9mZk0S51Pjxlj6LzgS0qmp4UeYXtCST46vB3/adaFOdXqhb6+JEkqGCxkJUmSJBUrlbf+QbdZ Y7lw5ifU2LQuXzLMOLgBQ5t1ZkzDtuxMKJEvGSRJUv6wkJUkSZJULMVlpHPCkmn0mP4x7Zf+kC8Z fk86gLebnMSwlM6srOAhYJIkFQcWspIkSZKKvVobVnPRjE84f/bnVNixJfT1M4gwsW5zhjbrwqQ6 zciIiw89gyRJCoeFrCRJkiT9fyV376Tr/Cn0mD6Go35ZmC8ZVpSvyrCUU3m7yclsKF0+XzJIkqS8 YyErSZIkSVEcueZnekz/mK7zJ1MqbVfo6++MT2R0wzYMbXYaMw8+DCKR0DNIkqTYs5CVJEmSpL2o sH0T584ex8UzPqH2H2vyJcPsqocyNKULHzVqx47EUvmSQZIkxYaFrCRJkiRlQyQzg3ZLZ3DxjDGc uOh74sj7v8/83caSZXi3yUm8kdKZpZWSQ19fkiTlnoWsJEmSJOVQjY1ruXDmJ3T7cSyVt2/KlwyT a6fwRkpnvqjXinQPAZMkqdDIz0I2IS8fvi9JJeI5uk6l/IwgSZIkqdCqxKSmh/PV7ms5ZvoEOk56 jwZLfgo1QbtlM2i3bAa/VazKuLZnML7N6Ww8wL/jSJJU0H1aIp7d+bR2vu6QbdSoEXPmzMnz9SVJ kiQVEzNmwKBBMGwYbNsW/vqJiXDOOdCnD7Rp4yFgkiQVUI0bN2bu3LnRbuX5Dtm4vHy4JEmSJIUq JQVeeglSU+Hpp6FBg3DX370b3noL2rWDo46CF16AzZvDzSBJkgo0C1lJkiRJRU+FCvDPf8K8eTBu HJx9NsSHPON19mzo3RuSk+G66yD6LhxJklTMWMhKkiRJKroiETjxRHjvPVi2DO68E6pWDTfD5s3w 7LPQuDGccAK8806wk1aSJBVLFrKSJEmSiocaNeDee2HFChgxIhgrELaJE+H886FWLRgwIBitIEmS ihULWUmSJEnFS4kSQSk6aVIwVqBPHyhbNtwMa9bAPfcExey558L48RDCgcuSJCn/WchKkiRJKr6O OAKeew5Wr4bnnw/GCoQpPT0Yp3DiidCoETzzDGzcGG4GSZIUKgtZSZIkSSpXLjiAa/bsYOdst26Q kBBuhvnzg4PIkpPh6qvhxx/DXV+SJIXCQlaSJEmS/hSJBLNl33oLVq6E++4LZs+GaetWePFFaNoU 2rSB4cNh585wM0iSpDxjIStJkiRJ0VSrBnfcAUuXwvvvB2MFwvbVV3DRRXDIIdC/f3AgmSRJKtQs ZCVJkiRpbxIS4KyzYNw4mDcPrr8eypcPN8Ovv8IDD0CdOnDGGfDZZ5CREW4GSZIUExaykiRJkpRd DRvCU09BaioMHhyMFQhTRgZ89BGccgo0aABPPAG//x5uBkmSlCsWspIkSZKUU2XKQK9eMH06fP01 XHwxlCgRboZFi+Cmm4JDwHr2hB9+CHd9SZK0XyxkJUmSJGl/RSJw7LEwdCisWgUPPgi1aoWbYccO eO01aNECjj4ahgyB7dvDzSBJkrLNQlaSJEmSYqFKFbjtNli8GEaNglNPDQrbMH33HVx6KdSoAbfe CkuWhLu+JEnaJwtZSZIkSYql+Hg47TT4+GNYuBBuvhkqVQo3w++/w6OPQr160LkzjB4N6enhZpAk SVFZyEqSJElSXjn00KAYXbUKXn8dWrYMd/3MTPjkE+jaNShnH34Y1q0LN4MkSfoLC1lJkiRJymtJ SfCPfwQjBb77Di67DEqVCjfDsmXBSIUaNaBHD5g6NShsJUlSqCxkJUmSJClMLVvCq69Caio89liw izZMu3bBG29A69bQvDm8/DJs3RpuBkmSijELWUmSJEnKD5UqwU03wc8/w6efwumnQ1zIf0WbMQOu uAKSk+GGG4IskiQpT1nISpIkSVJ+iouDTp3gww9hyRK4/XaoUiXcDBs3wlNPQYMGcPLJMHIkpKWF m0GSpGLCQlaSJEmSCopateCBB2DlShg2DI47LvwM48bB2WdDnTpw//3wyy/hZ5AkqQizkJUkSZKk gqZkSbjwQvjyy2CswJVXQunS4WZYtQruvBNq1oTu3WHyZA8BkyQpBixkJUmSJKkga9oUXnwRVq+G p58OxgqEKS0NRoyA44+HI4+EQYNg8+ZwM0iSVIRYyEqSJElSYVC+PPzznzBvHnzxBZxzDsTHh5vh p5+gTx+oXh2uuQbmzAl3fUmSigALWUmSJEkqTCIR6NAB3n0Xli+Hu+6CatXCzbBlCzz/PBxxBLRv D2+/Dbt3h5tBkqRCykJWkiRJkgqr5GS45x5YsSIoRdu3Dz/DpEnQrRsccgjcfXcwe1aSJGXJQlaS JEmSCrvERDjvPJgwIRgrcM01UK5cuBl++QXuvRdq1w7GKXzxhYeASZIUhYWsJEmSJBUljRvDs89C ampwANcRR4S7fno6vP8+nHQSHH44DBwIf/wRbgZJkgowC1lJkiRJKorKlYOrr4ZZs2DyZOjeHRIS ws2wYAFcf30wWuHKK2HmzHDXlySpALKQlSRJkqSiLBKBtm3hzTdh5Uq47z6oUSPcDNu2weDBkJIC xx0Hw4bBzp3hZpAkqYCwkJUkSZKk4qJaNf5fe3cZL2SVqH343oCE2D0CStgtdmIXdgcmJnYrOjbW 2Dl2dzd2DhZ2i5SwsTsIgf1+eM55z5w5EwasXdf1abP5sO6v+/97fmvl6KOToUOTu+5K1lyz/IYB A5JevZJOnZK+fZPhw8tvAIB6JMgCAAA0N61aJRtvnDzySPL++8kBByTTTlt2wxdfJKecknTtmmy4 YdK/fzJxYtkNAFAPBFkAAIDmbN55k7PPrh4Bu/zy6lqBkiZOTO67L1l33WSeeZIzz0y+/rrsBgAo SJAFAAAgad8+6d07eeWV5Pnnk+23T1q3Lrth8ODkkEOqR8B23jkZOLDs+QBQgCALAADA/6ipSZZd Nrn22mTkyOTUU5POnctuGDMmufrqZKmlkqWXrn4ePbrsBgCYTARZAAAA/rmZZ04OPzz56KPk/vuT 9dargm1JL79cfS3bsWNy6KHVV7QA0IgJsgAAAPx7LVsmPXsmDzyQDBpUhdEZZii74euvkzPOSOaa q7pv9r77kgkTym4AgElAkAUAAODX69YtOf306jqDa65Jllmm/Ib+/ZMNN6y2nHpq8sUX5TcAwO8k yAIAAPDbtWuX7LBD8sIL1eNbu+yStG1bdsPw4cmRR1bXGfTqVT1GVldXdgMA/EaCLAAAAH/MEksk V1yR1NYmZ55ZXStQ0rhxyQ03JMsvn3Tvnlx2WfLTT2U3AMCvJMgCAAAwacwwQ3LQQckHHyQPP5xs tFHSovCfna+/nuy+e9KhQ7L//tUWAGhABFkAAAAmrRYtkrXWSu6+OxkyJOnbN5l55rIbvvsuOe+8 ZL75kjXWSO68Mxk/vuwGAPgnBFkAAAAmnznnTPr1S0aMSG68MVlxxfIbHn882WyzpHPn5MQTk08+ Kb8BAP6LIAsAAMDk16ZNss02ybPPVtcK7LFH0r592Q21tckxxyRzzJFstVXyzDMeAQOgOEEWAACA shZdNPnrX6tAev75yfzzlz1//Pjk1luTHj2ShRfK4Ya5AAAgAElEQVROLroo+f77shsAaLYEWQAA AOrHtNMm++yTvPNO8sQTyeabJy1blt3wzjvJ3ntXj4D16ZO8/XbZ8wFodgRZAAAA6ldNTbLqqslt tyXDhyfHHpv86U9lN/z4Y3LxxdUXsz16JLfckowbV3YDAM2CIAsAAEDD0aFDctxxVZi97bYq1Jb2 zDPJ1ltXD5Idc0wycmT5DQA0WYIsAAAADc8UU1RXGDzxRHWtwD77JFNPXXbDp58mJ56YdO6cbLpp 8thjHgED4A8TZAEAAGjYFligevxr1KjqMbCFFy57/oQJyV13JWuuWT1Adu65ybfflt0AQJMhyAIA ANA4TDVVssceyRtvJM8+m2yzTfUlbUkffJAccEB1tcJuuyWvv172fAAaPUEWAACAxqWmJllxxeTG G5MRI5J+/ZJOncpu+Pnn5PLLk8UXT5ZfPrn++mTMmLIbAGiUBFkAAAAar1lnTfr2TYYMSe6+O1lr rfIbnn8+2X77KgofeWQybFj5DQA0GoIsAAAAjV+rVslGGyUPP1xdK3Dggcl005Xd8OWXyamnJl27 JhtskDz0UDJxYtkNADR4giwAAABNyzzzJGedldTWJldckXTvXvb8urrk/vuT9dZL5p47OeOM5Kuv ym4AoMESZAEAAGiappwy2WWXZODA5IUXkh12SNq0KbthyJDk0EOrR8B22il5+eWy5wPQ4AiyAAAA NG01NckyyyTXXJOMHJmcfnrSpUvZDWPHVucvvXSy1FLJVVclo0eX3QBAgyDIAgAA0HzMNFP1xeqg QckDDyQ9e1bBtqSBA6svdzt0SA45JPnoo7LnA1CvBFkAAACan5Ytqzte778/GTw4OeywZMYZy274 5pvkzDOre2bXWSe5995kwoSyGwAoTpAFAACgeevSJTnttOo6g2uvra43KO3hh5ONNkq6dk1OOSX5 /PPyGwAoQpAFAACAJGnbNtl+++oBsIEDk969k3btym74+OOkb9+kY8dku+2SAQOSurqyGwCYrARZ AAAA+EdLLJFcfnlSW5ucfXZ1rUBJv/yS3HhjssIKyeKLJ5demvz4Y9kNAEwWgiwAAAD8K9NPnxxw QPL++8kjjyQbb5y0KPyn9BtvJHvsUT0Ctv/+1RYAGi1BFgAAAP6TFi2SNddM7rorGTYsOeqoZJZZ ym74/vvkvPOS+edPVl89ueOO6ktaABoVQRYAAAB+i06dkpNOSkaMSG66KVlxxfIbnngi2XzzpHPn 5IQTkk8+Kb8BgN9FkAUAAIDfo3XrZOutk2efra4V2HPPpH37shtGjUqOPTaZY45kyy2Tp57yCBhA AyfIAgAAwB+1yCLJxRdXgfSCC6prBUoaPz657bZk1VWThRZKLrywuuIAgAZHkAUAAIBJZZppkr33 Tt55J3nyyWSLLZJWrcpuePfdZJ99qkfA+vRJ3nqr7PkA/FuCLAAAAExqNTXJKqskt96aDB+eHHdc MvvsZTf8+GP11e4iiyQrr5zcfHMyblzZDQD8H4IsAAAATE6zz17d8zpsWHL77clqq5Xf8OyzyTbb VHfN/vnP1YNkANQLQRYAAABKmGKKZLPNkscfr64V2Hff6oqDkj77LDnppKRz52STTZJHH00mTiy7 AaCZE2QBAACgtPnnT847L6mtTS65pLpWoKSJE5O7707WWqvacs45yTfflN0A0EwJsgAAAFBfppoq 2X335PXXk+eeS7bdtvqStqQPP0wOPLB6BGzXXZPXXit7PkAzI8gCAABAfaupSVZYIbnhhup+1379 kk6dym4YPTq54oqke/dkueWS665LxowpuwGgGRBkAQAAoCGZddakb99k6NDknnuStdcuv+GFF5Id dqii8BFHVFsAmCQEWQAAAGiIWrZMNtww6d+/ulbgoIOS6acvu+HLL5PTTku6dUvWXz958EGPgAH8 QYIsAAAANHRzz52ceWYycmRy5ZXJEkuUPb+uLnnggaRnz2SuuZK//KWKtQD8ZoIsAAAANBZTTpns vHMycGDy4ovJjjsmbdqU3TB0aHLYYUnHjtX5L75YBVsAfhVBFgAAABqjpZdOrr46qa1NTj896dKl 7PljxybXXpssu2yy1FLVl7s//1x2A0AjJMgCAABAYzbjjMmhhyYffVTd8br++klNTdkNr7yS9O5d fTV78MHJoEFlzwdoRARZAAAAaApatEjWXTe5775k8ODk8MOTmWYqu+Gbb5KzzkrmmSdZe+3knnuS CRPKbgBo4ARZAAAAaGq6dElOPTUZMSK57rpkueXKb3jkkWTjjZOuXZOTT04++6z8BoAGSJAFAACA pqpt26RXr2TAgOpagV13Tdq1K7vh44+To45KOnVKtt02ee45j4ABzZogCwAAAM1B9+7JZZclo0Yl 55xTXStQ0i+/JDfdlKy0UrLYYskllyQ//lh2A0ADIMgCAABAczLddMn++yfvvZc8+miyySbV/bMl vflmsueeyeyzJ/vuW20BaCYEWQAAAGiOWrRI1lgjufPOZNiw5Oijk1lnLbvhhx+SCy5IFlggWW21 5Pbbqy9pAZowQRYAAACau06dkhNPrO57vfnmZOWVy2948slkiy2Szp2T44+vrlYAaIIEWQAAAKDS unWy1VbJ009X1wrstVcy1VRlN4walRx3XDLHHFWgffJJj4ABTYogCwAAAPxfCy+cXHRRUlubXHhh da1ASRMmVFcYrLZasuCC1dUG331XdgPAZCDIAgAAAP/aNNMkffokb7+dPPVUsuWWSatWZTe89171 +FeHDtVjYG++WfZ8gElIkAUAAAD+s5qapEeP5JZbkuHDq3teZ5+97IaffkouuSRZdNFkpZWSm25K xo0ruwHgDxJkAQAAgN9m9tmTY45Jhg1L7rgjWX318hueey7ZdtvqQbKjj64eJANoBARZAAAA4PeZ Yopk002Txx6rrhXYb7/qioOSPv886dcv6dIl2Xjj5NFHk4kTy24A+A0EWQAAAOCPm2++5Nxzk1Gj kksvra4VKGnixOSee5K11qq2nH128s03ZTcA/AqCLAAAADDptG+f7LZb8tpryd/+lmy3XdK6ddkN gwYlBx1UPQLWu3fy6qtlzwf4NwRZAAAAYNKrqUmWXz65/vpkxIjklFOSOecsu2H06OTKK5MllkiW XTa59tpkzJiyGwD+gSALAAAATF6zzJIccUQyeHBy773JOuuU3/Dii8mOOyYdOyaHH54MHVp+A0AE WQAAAKCUli2TDTZIHnqoulbg4IOT6acvu+Grr5LTT0+6dUt69kwefDCZMKHsBqBZE2QBAACA8uaa KznjjKS2NrnqqmTJJcueX1dXxdiePZO5564i7Zdflt0ANEuCLAAAAFB/2rVLdtopefnl5KWXqp/b ti27YejQ6hqDjh2THXaorjeoqyu7AWg2BFkAAACgYVhqqepr2ZEjq69nu3Ure/7Yscl111UPgC25 ZHLFFcnPP5fdADR5giwAAADQsMw4Y3W/7IcfVvfNbrBBUlNTdsOrrya77pp06JAceGC1BWASEGQB AACAhqlFi2SddZJ7702GDEmOOCKZaaayG779NjnnnGTeeZO11kruvjsZP77sBqBJEWQBAACAhq9z 5+SUU6rrDK6/PlluufIbHn002WSTpGvXpF+/5LPPym8AGj1BFgAAAGg82rRJttsuGTCgulZgt92S Kacsu2HEiOToo5NOnZJttkmee84jYMCvJsgCAAAAjdPiiyeXXprU1ibnnltdK1DSL78kN9+crLRS suiiyV//mvzwQ9kNQKMjyAIAAACN23TTJfvtl7z3XvLYY8mmmyYtW5bd8NZbyV57VY+A7btv8u67 Zc8HGg1BFgAAAGgaamqS1VdP7rgjGTYsOeaYZLbZym744YfkgguSBRdMVl01ue226ktagP8iyAIA AABNT8eOyfHHJ8OHJ7fckqy8cvkNTz2VbLllMuecyXHHVVcrAM2eIAsAAAA0Xa1bV1H06aerawX6 9Emmmqrshk8+qeLwnHMmm2+ePPmkR8CgGRNkAQAAgOZhoYWSCy9MRo1KLrqoulagpAkTqusUVlst WWCB5Pzzk+++K7sBqHeCLAAAANC8TD119QDXW29VX85utVXSqlXZDe+/Xz1E1qFDsueeyRtvlD0f qDeCLAAAANA81dRUd8vefHMyYkRy4onV3bMl/fRTcsklyWKLJSuumNx4YzJ2bNkNQFGCLAAAAMBs syVHH50MHZrceWeyxhrlN/ztb8l22yVzzJEcdVTy8cflNwCTnSALAAAA8N9atUo22SR59NHqWoH9 90+mnbbshs8/T04+OenSJdloo+Thh5OJE8tuACYbQRYAAADgn5l33uScc5La2uSyy6prBUqaODG5 995knXWqLWedlXz9ddkNwCQnyAIAAAD8O+3bJ7vumrz6ajJgQNKrV9K6ddkNH32UHHxw9QhY797J K6+UPR+YZARZAAAAgF+jpiZZbrnkuuuSkSOTU05J5pyz7IYxY5Irr0yWXDJZZpnkmmuS0aPLbgD+ EEEWAAAA4LeaeebkiCOSwYOT++5L1l23CrYlvfRSstNOSceOyWGHJUOGlD0f+F0EWQAAAIDfq2XL ZP31kwcfTAYNSg45JJlhhrIbvv46+ctfkrnmStZbL7n//mTChLIbgF9NkAUAAACYFLp1q8LoyJHJ 1VcnSy9d9vy6uuShh5INNqji7GmnJV98UXYD8B8JsgAAAACTUrt2yY47Ji++mLz8crLzzknbtmU3 DBtWXanQsWOy/fbJCy9UwRaod4IsAAAAwOSy5JLVI1y1tckZZ1Rf0ZY0blxy/fXVY2RLLJFcfnny 009lNwD/iyALAAAAMLnNMENy8MHJhx8m/fsnG26YtCicZV57Ldltt6RDh+TAA6stQHGCLAAAAEAp LVoka6+d3HNPMmRIcuSRycwzl93w3XfJOeck886brLlmctddyfjxZTdAMybIAgAAANSHOedMTj45 GTEiueGGZIUVym947LFk002TLl2Sk05KPv20/AZoZgRZAAAAgPrUpk2y7bbJc88lr7+e7L57MuWU ZTeMHJn8+c9Jp07J1lsnzzzjETCYTARZAAAAgIZi0UWTSy5JRo1KzjsvmW++suePH5/cckvSo0ey yCLJxRcnP/xQdgM0cYIsAAAAQEMz7bTJvvsm776bPP54stlmScuWZTe8/XbSp0/1CNg++yTvvFP2 fGiiBFkAAACAhqqmJlltteT225Phw5Njjklmm63shh9+SC68MFlooWSVVZJbb01++aXsBmhCBFkA AACAxqBDh+T445OPP66i6CqrlN/w9NPJVlslc8yRHHtsdfcs8JsIsgAAAACNyRRTJFtskTz5ZHWt wN57J1NPXXbDp58mJ5yQdO5cXafw+OMeAYNfSZAFAAAAaKwWXDC54IKktrZ6gGuhhcqeP2FCcued yRprJPPPXz1E9u23ZTdAIyPIAgAAADR2U0+d7Lln8uabyTPPJFtvnbRqVXbDBx8k++9fXa2w++7J G2+UPR8aCUEWAAAAoKmoqUlWWim56aZkxIjkxBOTjh3Lbvj55+Syy5LFFktWWCG54YZk7NiyG6AB E2QBAAAAmqLZZkuOPjoZOjS5665kzTXLbxgwIOnVK+nUKenbNxk+vPwGaGAEWQAAAICmrFWrZOON k0ceSd5/PznggGTaactu+OKL5JRTkq5dkw03TPr3TyZOLLsBGghBFgAAAKC5mHfe5Oyzq0fALr88 WXzxsudPnJjcd1+y7rrJPPMkZ56ZfP112Q1QzwRZAAAAgOamffukd+/klVeS559Ptt8+ad267IbB g5NDDqkeAdt552TgwLLnQz0RZAEAAACaq5qaZNllk2uvTUaOTE47LencueyGMWOSq69OlloqWXrp 6ufRo8tugIIEWQAAAACSmWdODjss+eij5P77k/XWq4JtSS+/XH0t27Fjcuih1Ve00MQIsgAAAAD8 j5Ytk549kwceSAYNqsLoDDOU3fD118kZZyRzzVXdN3vffcmECWU3wGQiyAIAAADwz3Xrlpx+enWd wTXXJMssU35D//7JhhtWW049Nfnii/IbYBISZAEAAAD499q1S3bYIXnhherxrV12Sdq2Lbth+PDk yCOr6wx69aoeI6urK7sBJgFBFgAAAIBfb4klkiuuSGprk7POqq4VKGncuOSGG5Lll0+6d08uuyz5 6aeyG+APEGQBAAAA+O1mmCE58MDkgw+Shx9ONtooaVE4Nb3+erL77kmHDskBB1RboIETZAEAAAD4 /Vq0SNZaK7n77mTo0KRv32Tmmctu+O675Nxzk/nmS9ZYI7nzzmT8+LIb4FcSZAEAAACYNOaYI+nX LxkxIrnxxmTFFctvePzxZLPNks6dkxNPTD75pPwG+DcEWQAAAAAmrTZtkm22SZ59trpWYI89kvbt y26orU2OOaaKxFttlTzzjEfAaBAEWQAAAAAmn0UXTf761yqQnn9+Mv/8Zc8fPz659dakR49k4YWT iy5Kvv++7Ab4O4IsAAAAAJPftNMm++yTvPNO8sQTyeabJy1blt3wzjvJ3ntXj4D16ZO8/XbZ8yGC LAAAAAAl1dQkq66a3HZbMnx4ctxxyZ/+VHbDjz8mF19cfTHbo0dyyy3JuHFlN9BsCbIAAAAA1I8O HZJjj63C7G23VaG2tGeeSbbeOplzzurO2ZEjy2+gWRFkAQAAAKhfU0xRXWHwxBPVtQL77JNMPXXZ DZ9+mpx4YtK5c7Lppsnjj3sEjMlCkAUAAACg4Vhggerxr1GjqsfAFl647PkTJiR33ZWssUb1ANm5 5ybfflt2A02aIAsAAABAwzPVVMkeeyRvvJE8+2yyzTbVl7QlffBBcsAB1dUKu+2WvP562fNpkgRZ AAAAABqumppkxRWTG29MRoxI+vVLOnUqu+Hnn5PLL08WXzxZfvnk+uuTMWPKbqDJEGQBAAAAaBxm nTXp2zcZMiS5++5krbXKb3j++WT77asofOSRybBh5TfQqAmyAAAAADQurVolG22UPPxw8uGHyYEH JtNNV3bDl18mp56adO2abLBB0r9/MnFi2Q00SoIsAAAAAI3X3HMnZ52V1NYmV1yRdO9e9vy6uuT+ +5N11622nHFG8tVXZTfQqAiyAAAAADR+U06Z7LJLMnBg8sILyQ47JG3alN0wZEhy6KHVI2A77ZS8 /HLZ82kUBFkAAAAAmo6ammSZZZJrrklGjkxOPz3p0qXshrFjq/OXXjpZaqnkqquS0aPLbqDBEmQB AAAAaJpmmqn6YnXQoOSBB5KePatgW9LAgdWXux06JIccknz0UdnzaXAEWQAAAACatpYtk/XWq+56 HTw4OeywZMYZy2745pvkzDOre2bXWSe5995kwoSyG2gQBFkAAAAAmo8uXZLTTquuM7j22mTZZctv ePjhZKONkq5dk1NOST7/vPwG6o0gCwAAAEDz07Ztsv32yfPPJ6+8kvTunbRrV3bDxx8nffsmnTol vXolAwYkdXVlN1CcIAsAAABA89a9e3L55UltbXL22dW1AiWNG5fccEOywgrJ4osnl16a/Phj2Q0U I8gCAAAAQJJMP31ywAHJ++8njzySbLxx0qJwPnvjjWSPPapHwPbfv9pCkyLIAgAAAMDfa9EiWXPN 5K67kmHDkqOOSmaZpeyG779PzjsvmX/+ZPXVkzvuSH75pewGJgtBFgAAAAD+lU6dkpNOSkaMSG66 KVlppfIbnngi2XzzpHPn5IQTkk8+Kb+BSUaQBQAAAID/pHXrZOutk2eeSd58M9lzz6R9+7IbRo1K jj02mWOOZKutkqef9ghYIyTIAgAAAMBvsfDCycUXV4H0gguqawVKGj8+ufXWZJVVkoUWSi68sLri gEZBkAUAAACA32OaaZK9907eeSd58slkiy2SVq3Kbnj33WSffapHwPr0Sd56q+z5/GaCLAAAAAD8 ETU11deqt96aDB+eHHdcMvvsZTf8+GP11e4iiyQrr5zcfHMyblzZDfwqgiwAAAAATCqzz17d8zps WHL77clqq5Xf8OyzyTbbVHfN/vnP1YNkNBiCLAAAAABMalNMkWy2WfL449W1AvvuW11xUNJnnyUn nZR07pxsskny2GPJxIllN/B/CLIAAAAAMDnNP39y3nlJbW1yySXVtQIlTZyY3H13suaa1ZZzzkm+ +absBv4/QRYAAAAASphqqmT33ZPXX0+eey7ZdtvqS9qSPvwwOfDA6hGw3XZLXnut7PkIsgAAAABQ VE1NssIKyQ03VPe79uuXdOpUdsPo0cnllyfduyfLLZdcd10yZkzZDc2UIAsAAAAA9WXWWZO+fZOh Q5N77knWXrv8hhdeSHbYoYrCRxxRbWGyEWQBAAAAoL61bJlsuGHSv391rcBBByXTT192w5dfJqed lnTrlqy/fvLggx4BmwwEWQAAAABoSOaeOznzzGTkyOTKK5Mllih7fl1d8sADSc+eyVxzJX/5SxVr mSQEWQAAAABoiKacMtl552TgwOTFF5Mdd0zatCm7YejQ5LDDko4dq/NfeqkKtvxugiwAAAAANHRL L51cfXVSW1t9sdq1a9nzx45Nrr02WWaZZKmlqi93f/657IYmQpAFAAAAgMZixhmTQw5JBg2q7nhd f/2kpqbshldeSXr3rr6aPfjgagu/miALAAAAAI1NixbJuusm992XDB6cHH54MtNMZTd8801y1lnJ PPMka6+d3HNPMmFC2Q2NkCALAAAAAI1Zly7JqacmI0Yk112XLLdc+Q2PPJJsvHF1lcLJJyeffVZ+ QyMhyAIAAABAU9C2bdKrVzJgQHWtwK67Ju3ald3w8cfJUUclnTol226bPPecR8D+gSALAAAAAE1N 9+7JZZclo0Yl55xTXStQ0i+/JDfdlKy0UrLYYskllyQ//lh2QwMlyAIAAABAUzXddMn++yfvv588 +miyySbV/bMlvflmsueeSYcOyX77Je+9V/b8BkaQBQAAAICmrqYmWWON5M47k2HDkqOPTmadteyG 779Pzj8/WWCBZLXVkttvr76kbWYEWQAAAABoTjp1Sk48sbrv9eabk5VXLr/hySeTLbZIOndOjj++ ulqhmRBkAQAAAKA5at062Wqr5Omnq2sF9tormWqqshtGjUqOOy6ZY44q0D75ZJN/BEyQBQAAAIDm buGFk4suSmprkwsvrK4VKGnChOoKg9VWSxZcMLngguS778puKESQBQAAAAAq00yT9OmTvP128tRT yZZbJq1ald3w3nvJvvtWj4DtuWfy1ltlz5/MBFkAAAAA4H+rqUl69EhuuaW6a/aEE6pAWtJPPyWX XJIsskiy0krJTTcl48aV3TAZCLIAAAAAwL/2pz8lf/5zMmxYcscdyeqrl9/w3HPJtttWD5IdfXQV iRspQRYAAAAA+M9atUo23TR57LHqWoH99quuOCjp88+Tfv2SLl2SjTdOHn00mTix7IY/SJAFAAAA AH6b+eZLzj03GTUqufTSZNFFy54/cWJyzz3JWmtVW84+O/nmm7IbfidBFgAAAAD4fdq3T3bbLXnt teRvf0u22y5p3brshkGDkoMOqu647d07efXVsuf/RoIsAAAAAPDH1NQkyy+fXH99MmJEcsopyZxz lt0wenRy5ZXJEkskyy6bXHttMmZM2Q2/giALAAAAAEw6s8ySHHFEMnhwcu+9yTrrlN/w4ovJjjsm HTsmhx+eDB1afsO/IMgCAAAAAJNey5bJBhskDz1UXStw8MHJ9NOX3fDVV8nppyfduiU9eyYPPphM mFB2wz8QZAEAAACAyWuuuZIzzkhqa5OrrkqWXLLs+XV1VYzt2TOZe+7kyy/Lnv93BFkAAAAAoIx2 7ZKddkpefjl56aXq57Zty24YOjT5/POyZ/4dQRYAAAAAKG+ppaqvZUeOrL6e7datvhcVIcgCAAAA APVnxhmr+2U//LC6b3aDDZKamvpeNdkIsgAAAABA/WvRIllnneTee5MhQ5Ijj0xmnrm+V01ygiwA AAAA0LB07pycfHIyYkRy/fXJcsvV96JJRpAFAAAAABqmNm2S7bZLBgxIXn012W23ZMop63vVHyLI AgAAAAAN3+KLJ5demtTWJueem8w7b30v+l0EWQAAAACg8ZhuumS//ZL33kseeyzZdNOkZcv6XvWr CbIAAAAAQONTU5Osvnpyxx3JsGHJMccks81W36v+I0EWAAAAAGjcOnZMjj8+GT48ueWWpEeP+l70 LwmyAAAAAEDT0Lp1suWWyVNPJW+/nfTpk0w1VX2v+l8EWQAAAACg6VlwweTCC5NRo5KLLqr+3QAI sgAAAABA0zX11MleeyVvvZU8/XSy1Vb1OkeQBQAAAACavpqaZOWVk5tvTuaZp95mCLIAAAAAQPPS qlW9HS3IAgAAAAAUIsgCAAAAABQiyAIAAAAAFCLIAgAAAAAUIsgCAAAAABQiyAIAAAAAFCLIAgAA AAAUIsgCAAAAABQiyAIAAAAAFCLIAgAAAAAUIsgCAAAAABQiyAIAAAAAFCLIAgAAAAAUIsgCAAAA ABQiyAIAAAAAFCLIAgAAAAAUIsgCAAAAABRSU1dXN/kPqan5PsnU//j7Nm3apFu3bpP9fAAAAACA /zZ48OCMHTv2n/3XD3V1ddNMzrNLBdkxSdpM9oMAAAAAAH6/sXV1dW0n5wGuLAAAAAAAKESQBQAA AAAoRJAFAAAAAChEkAUAAAAAKKRVoXO+TTLdP/n9uCQjCm0AAAAAAEiSTkla/5Pffzu5D66pq6ub 3GcAAAAAABBXFgAAAAAAFCPIAgAAAAAUIsgCAAAAABQiyAIAAAAAFCLIAgAAAAAUIsgCAAAAABQi yAIAAAAAFCLIAgAAAAAUIsgCAAAAABQiyAIAAAAAFCLIAgAAAAAUIsgCAAAAABQiyAIAAAAAFCLI AgAAAAAUIsgCAAAAABQiyAIAAAAAFCLIAgIkgeYAAAK8SURBVAAAAAAUIsgCAAAAABQiyAIAAAAA FCLIAgAAAAAUIsgCAAAAABQiyAIAAAAAFCLIAgAAAAAUIsgCAAAAABQiyAIAAAAAFCLIAgAAAAAU IsgCAAAAABQiyAIAAAAAFCLIAgAAAAAUIsgCAAAAABQiyAIAAAAAFCLIAgAAAAAUIsgCAAAAABQi yAIAAAAAFCLIAgAAAAAUIsgCAAAAABQiyAIAAAAAFCLIAgAAAAAUIsgCAAAAABQiyAIAAAAAFCLI AgAAAAAUIsgCAAAAABQiyAIAAAAAFCLIAgAAAAAUIsgCAAAAABQiyAIAAAAAFCLIAgAAAAAUIsgC AAAAABQiyAIAAAAAFCLIAgAAAAAUIsgCAAAAABQiyAIAAAAAFCLIAgAAAAAUIsgCAAAAABQiyAIA AAAAFCLIAgAAAAAUIsgCAAAAABQiyAIAAAAAFCLIAgAAAAAUIsgCAAAAABQiyAIAAAAAFCLIAgAA AAAUIsgCAAAAABQiyAIAAAAAFCLIAgAAAAAUIsgCAAAAABQiyAIAAAAAFCLIAgAAAAAUIsgCAAAA ABQiyAIAAAAAFCLIAgAAAAAUIsgCAAAAABQiyAIAAAAAFCLIAgAAAAAUIsgCAAAAABQiyAIAAAAA FCLIAgAAAAAUIsgCAAAAABQiyAIAAAAAFCLIAgAAAAAUIsgCAAAAABQiyAIAAAAAFCLIAgAAAAAU IsgCAAAAABQiyAIAAAAAFCLIAgAAAAAUIsgCAAAAABQiyAIAAAAAFCLIAgAAAAAUIsgCAAAAABQi yAIAAAAAFCLIAgAAAAAUIsgCAAAAABQiyAIAAAAAFCLIAgAAAAAUIsgCAAAAABQiyAIAAAAAFCLI AgAAAAAUIsgCAAAAABQiyAIAAAAAFCLIAgAAAAAUIsgCAAAAABQiyAIAAAAAFPL/AFhZghLLfOoI AAAAAElFTkSuQmCC "
       id="image48385"
       x="52.351963"
       y="84.933395"
       style="stroke-width:3.16425" /><text
       xml:space="preserve"
       style="font-size:7.40833px;line-height:125%;font-family:sans-serif;-inkscape-font-specification:sans-serif;letter-spacing:0px;word-spacing:0px;fill:#000000;stroke:none;stroke-width:0.264583px;stroke-linecap:butt;stroke-linejoin:miter;stroke-opacity:1"
       x="69.458435"
       y="145.53294"
       id="text46696"><tspan
         sodipodi:role="line"
         id="tspan46694"
         style="fill:#000000;stroke:none;stroke-width:0.264583px"
         x="69.458435"
         y="145.53294">Real time/DUT frequency</tspan></text><text
       xml:space="preserve"
       style="font-size:7.40833px;line-height:125%;font-family:sans-serif;-inkscape-font-specification:sans-serif;letter-spacing:0px;word-spacing:0px;fill:#000000;stroke:none;stroke-width:0.264583px;stroke-linecap:butt;stroke-linejoin:miter;stroke-opacity:1"
       x="-120.99956"
       y="50.886734"
       id="text47180"
       transform="rotate(-90)"><tspan
         sodipodi:role="line"
         id="tspan47178"
         style="fill:#000000;stroke:none;stroke-width:0.264583px"
         x="-120.99956"
         y="50.886734">Phase</tspan></text></g></svg>
